# Wavefront Obj file
# 
# verts: 676 uv-s: 958
mtllib llavetuboFINAL.mtl

g llavetubo

v 12.179600 0.308500 1.551100
v 8.435200 0.300000 1.508400
v 8.435200 0.000000 1.538000
v 12.179600 0.000000 1.581400
v 12.179600 0.605200 1.461100
v 8.435200 0.588600 1.420900
v 12.179600 0.878600 1.314900
v 8.435200 0.854500 1.278800
v 12.179600 1.118200 1.118200
v 8.435200 1.087500 1.087500
v 12.179600 1.314900 0.878600
v 8.435200 1.278800 0.854500
v 12.179600 1.461100 0.605200
v 8.435200 1.420900 0.588600
v 12.179600 1.551000 0.308500
v 8.435200 1.508400 0.300000
v 12.179600 1.581400 0.000000
v 8.435200 1.538000 0.000000
v 12.179600 1.551000 -0.308500
v 8.435200 1.508400 -0.300000
v 12.179600 1.461000 -0.605200
v 8.435200 1.420900 -0.588600
v 12.179600 1.314900 -0.878600
v 8.435200 1.278800 -0.854500
v 12.179600 1.118200 -1.118200
v 8.435200 1.087500 -1.087500
v 12.179600 0.878600 -1.314900
v 8.435200 0.854500 -1.278800
v 12.179600 0.605200 -1.461000
v 8.435200 0.588600 -1.420900
v 12.179600 0.308500 -1.551000
v 8.435200 0.300000 -1.508400
v 12.179600 0.000000 -1.581400
v 8.435200 0.000000 -1.538000
v 12.179600 -0.308500 -1.551100
v 8.435200 -0.300000 -1.508400
v 12.179600 -0.605200 -1.461000
v 8.435200 -0.588600 -1.420900
v 12.179600 -0.878600 -1.314900
v 8.435200 -0.854500 -1.278800
v 12.179600 -1.118200 -1.118200
v 8.435200 -1.087500 -1.087500
v 12.179600 -1.314900 -0.878600
v 8.435200 -1.278800 -0.854500
v 12.179600 -1.461100 -0.605200
v 8.435200 -1.420900 -0.588600
v 12.179600 -1.551000 -0.308500
v 8.435200 -1.508400 -0.300000
v 12.179600 -1.581500 0.000000
v 8.435200 -1.538000 0.000000
v 12.179600 -1.551000 0.308500
v 8.435200 -1.508400 0.300000
v 12.179600 -1.461000 0.605200
v 8.435200 -1.420900 0.588600
v 12.179600 -1.314900 0.878600
v 8.435200 -1.278800 0.854500
v 12.179600 -1.118200 1.118200
v 8.435200 -1.087500 1.087500
v 12.179600 -0.878600 1.314900
v 8.435200 -0.854500 1.278800
v 12.179600 -0.605200 1.461100
v 8.435200 -0.588600 1.420900
v 12.179600 -0.308500 1.551100
v 8.435200 -0.300000 1.508400
v 3.103200 0.261800 1.316400
v 3.103200 0.000000 1.342100
v 8.116200 0.000000 1.472000
v 8.116200 0.287200 1.443700
v 3.103200 0.513600 1.240000
v 8.116200 0.563300 1.359900
v 3.103200 0.745700 1.116000
v 8.116200 0.817800 1.223900
v 3.103200 0.949000 0.949000
v 8.116200 1.040900 1.040900
v 3.103200 1.116000 0.745700
v 8.116200 1.223900 0.817800
v 3.103200 1.240000 0.513600
v 8.116200 1.359900 0.563300
v 3.103200 1.316400 0.261800
v 8.116200 1.443700 0.287200
v 3.103200 1.342100 0.000000
v 8.116200 1.472000 0.000000
v 3.103200 1.316400 -0.261800
v 8.116200 1.443700 -0.287200
v 3.103200 1.240000 -0.513600
v 8.116200 1.359900 -0.563300
v 3.103200 1.116000 -0.745700
v 8.116200 1.223900 -0.817800
v 3.103200 0.949000 -0.949000
v 8.116200 1.040900 -1.040900
v 3.103200 0.745700 -1.116000
v 8.116200 0.817800 -1.223900
v 3.103200 0.513600 -1.240000
v 8.116200 0.563300 -1.359900
v 3.103200 0.261800 -1.316400
v 8.116200 0.287200 -1.443700
v 3.103200 0.000000 -1.342100
v 8.116200 0.000000 -1.472000
v 3.103200 -0.261800 -1.316400
v 8.116200 -0.287200 -1.443700
v 3.103200 -0.513600 -1.240000
v 8.116200 -0.563300 -1.359900
v 3.103200 -0.745700 -1.116000
v 8.116200 -0.817800 -1.223900
v 3.103200 -0.949000 -0.949000
v 8.116200 -1.040900 -1.040900
v 3.103200 -1.116000 -0.745700
v 8.116200 -1.223900 -0.817800
v 3.103200 -1.240000 -0.513600
v 8.116200 -1.359900 -0.563300
v 3.103200 -1.316400 -0.261800
v 8.116200 -1.443700 -0.287200
v 3.103200 -1.342100 0.000000
v 8.116200 -1.472000 0.000000
v 3.103200 -1.316400 0.261800
v 8.116200 -1.443700 0.287200
v 3.103200 -1.240000 0.513600
v 8.116200 -1.359900 0.563300
v 3.103200 -1.116000 0.745700
v 8.116200 -1.223900 0.817800
v 3.103200 -0.949000 0.949000
v 8.116200 -1.040900 1.040900
v 3.103200 -0.745700 1.116000
v 8.116200 -0.817800 1.223900
v 3.103200 -0.513600 1.240000
v 8.116200 -0.563300 1.359900
v 3.103200 -0.261800 1.316400
v 8.116200 -0.287200 1.443700
v -14.569500 0.257300 1.636800
v -14.559900 -0.004200 1.657300
v -13.789500 0.000000 1.318900
v -13.789500 0.257300 1.293500
v -14.598100 0.510100 1.576000
v -13.789500 0.504700 1.218500
v -14.644800 0.745400 1.476100
v -13.789500 0.732700 1.096600
v -14.708600 0.954700 1.339200
v -13.789500 0.932600 0.932600
v -14.787800 1.130000 1.169100
v -13.789500 1.096600 0.732700
v -14.880300 1.264300 0.970600
v -13.789500 1.218500 0.504700
v -14.983500 1.351700 0.750400
v -13.789500 1.293500 0.257300
v -15.093800 1.387700 0.516200
v -13.789500 1.318900 0.000000
v -15.197400 1.359300 0.289500
v -13.789500 1.293500 -0.257300
v -15.296400 1.279100 0.071600
v -13.789500 1.218500 -0.504700
v -15.387200 1.150200 -0.129100
v -13.789500 1.096600 -0.732700
v -15.466600 0.977600 -0.305000
v -13.789500 0.932600 -0.932600
v -15.531600 0.767700 -0.449200
v -13.789500 0.732700 -1.096600
v -15.579800 0.528600 -0.556300
v -13.789500 0.504700 -1.218500
v -15.609600 0.269400 -0.622300
v -13.789500 0.257300 -1.293500
v -15.619800 0.000000 -0.644500
v -13.789500 0.000000 -1.318900
v -15.610000 -0.269500 -0.622100
v -13.789500 -0.257300 -1.293500
v -13.789500 -0.504700 -1.218500
v -15.580500 -0.528700 -0.556100
v -13.789500 -0.732700 -1.096600
v -15.532600 -0.767700 -0.448800
v -13.789500 -0.932600 -0.932600
v -15.467800 -0.977600 -0.304500
v -13.789500 -1.096600 -0.732700
v -15.388700 -1.150300 -0.128600
v -13.789500 -1.218500 -0.504700
v -15.298000 -1.279200 0.072200
v -13.789500 -1.293500 -0.257300
v -15.199100 -1.359400 0.290200
v -13.789500 -1.318900 0.000000
v -15.096900 -1.387400 0.513700
v -13.789500 -1.293500 0.257300
v -14.985400 -1.353300 0.751500
v -13.789500 -1.218500 0.504700
v -14.882100 -1.267600 0.971500
v -13.789500 -1.096600 0.732700
v -14.789400 -1.134700 1.169800
v -13.789500 -0.932600 0.932600
v -14.709800 -0.960800 1.339900
v -13.789500 -0.732700 1.096600
v -14.645800 -0.752400 1.476600
v -13.789500 -0.504700 1.218500
v -14.598700 -0.517900 1.576400
v -13.789500 -0.257300 1.293500
v -14.569800 -0.265600 1.637000
v -13.210900 0.245800 1.235600
v -13.210900 0.000000 1.259800
v 2.696100 0.000000 1.259800
v 2.696100 0.245800 1.235600
v -13.210900 0.482100 1.163900
v 2.696100 0.482100 1.163900
v -13.210900 0.699900 1.047500
v 2.696100 0.699900 1.047500
v -13.210900 0.890800 0.890800
v 2.696100 0.890800 0.890800
v -13.210900 1.047500 0.699900
v 2.696100 1.047500 0.699900
v -13.210900 1.163900 0.482100
v 2.696100 1.163900 0.482100
v -13.210900 1.235600 0.245800
v 2.696100 1.235600 0.245800
v -13.210900 1.259800 0.000000
v 2.696100 1.259800 0.000000
v -13.210900 1.235600 -0.245800
v 2.696100 1.235600 -0.245800
v -13.210900 1.163900 -0.482100
v 2.696100 1.163900 -0.482100
v -13.210900 1.047500 -0.699900
v 2.696100 1.047500 -0.699900
v -13.210900 0.890800 -0.890800
v 2.696100 0.890800 -0.890800
v -13.210900 0.699900 -1.047500
v 2.696100 0.699900 -1.047500
v -13.210900 0.482100 -1.163900
v 2.696100 0.482100 -1.163900
v -13.210900 0.245800 -1.235600
v 2.696100 0.245800 -1.235600
v -13.210900 0.000000 -1.259800
v 2.696100 0.000000 -1.259800
v -13.210900 -0.245800 -1.235600
v 2.696100 -0.245800 -1.235600
v -13.210900 -0.482100 -1.163900
v 2.696100 -0.482100 -1.163900
v -13.210900 -0.699900 -1.047500
v 2.696100 -0.699900 -1.047500
v -13.210900 -0.890800 -0.890800
v 2.696100 -0.890800 -0.890800
v -13.210900 -1.047500 -0.699900
v 2.696100 -1.047500 -0.699900
v -13.210900 -1.163900 -0.482100
v 2.696100 -1.163900 -0.482100
v -13.210900 -1.235600 -0.245800
v 2.696100 -1.235600 -0.245800
v -13.210900 -1.259800 0.000000
v 2.696100 -1.259800 0.000000
v -13.210900 -1.235600 0.245800
v 2.696100 -1.235600 0.245800
v -13.210900 -1.163900 0.482100
v 2.696100 -1.163900 0.482100
v -13.210900 -1.047500 0.699900
v 2.696100 -1.047500 0.699900
v -13.210900 -0.890800 0.890800
v 2.696100 -0.890800 0.890800
v -13.210900 -0.699900 1.047500
v 2.696100 -0.699900 1.047500
v -13.210900 -0.482100 1.163900
v 2.696100 -0.482100 1.163900
v -13.210900 -0.245800 1.235600
v 2.696100 -0.245800 1.235600
v -15.316200 0.239400 1.980600
v -15.297900 -0.012800 1.996600
v -15.370000 0.482600 1.933200
v -15.457500 0.707700 1.856000
v -15.575700 0.906200 1.751600
v -15.720500 1.070500 1.623700
v -15.886600 1.193900 1.476800
v -16.067699 1.271300 1.316600
v -16.256100 1.299900 1.149100
v -16.439400 1.274800 0.989100
v -16.615101 1.200100 0.834800
v -16.777599 1.079300 0.692400
v -16.919901 0.916100 0.567700
v -17.036699 0.717000 0.465300
v -17.124001 0.490300 0.389000
v -17.176800 0.243700 0.342500
v -17.195200 -0.012400 0.326400
v -17.176701 -0.268600 0.342300
v -17.122900 -0.514800 0.389100
v -17.035700 -0.741700 0.465100
v -16.918400 -0.940400 0.567500
v -16.775801 -1.103400 0.692200
v -16.613400 -1.224400 0.834400
v -16.437300 -1.298000 0.988900
v -16.255600 -1.323300 1.148000
v -16.065800 -1.294900 1.317200
v -15.884700 -1.218000 1.477400
v -15.719100 -1.094400 1.624100
v -15.574000 -0.931200 1.752200
v -15.456500 -0.732700 1.856300
v -15.369200 -0.507900 1.933400
v -15.315800 -0.265000 1.980700
v -15.809500 0.206600 2.450900
v -16.152000 0.234700 3.547600
v -16.129200 0.003200 3.552600
v -15.788100 -0.026100 2.460400
v -15.871600 0.430300 2.422300
v -16.218500 0.457300 3.532800
v -16.326200 0.662400 3.508500
v -15.972000 0.636400 2.375800
v -16.471001 0.842200 3.475900
v -16.106899 0.816900 2.313200
v -16.647301 0.989700 3.436100
v -16.271200 0.964900 2.236900
v -16.848301 1.099200 3.390800
v -16.458401 1.074800 2.149800
v -17.066299 1.166100 3.341700
v -16.661501 1.141900 2.055200
v -17.292200 1.190000 3.290700
v -16.872499 1.165300 1.956800
v -17.512400 1.166000 3.242300
v -17.083401 1.141300 1.858500
v -17.723400 1.097400 3.195700
v -17.285900 1.072400 1.763900
v -17.918699 0.988600 3.152500
v -17.473000 0.962500 1.676500
v -18.089001 0.840400 3.114700
v -17.636299 0.813500 1.600000
v -18.228600 0.660200 3.083700
v -17.770100 0.632200 1.537300
v -18.333900 0.455700 3.060300
v -17.870501 0.426300 1.490100
v -18.395300 0.232300 3.046300
v -17.929899 0.201700 1.462100
v -18.418100 0.001000 3.041100
v -17.951200 -0.031000 1.451700
v -18.395599 -0.230400 3.045800
v -17.929600 -0.263700 1.461400
v -18.330999 -0.452900 3.059800
v -17.867500 -0.487400 1.490000
v -18.226400 -0.657900 3.082700
v -17.767000 -0.693400 1.536500
v -18.085800 -0.837500 3.113500
v -17.632099 -0.874000 1.599100
v -17.914600 -0.984900 3.151200
v -17.467800 -1.022000 1.675400
v -17.719700 -1.094600 3.194100
v -17.280701 -1.132100 1.762500
v -17.077400 -1.198400 1.857200
v -17.507601 -1.160300 3.240700
v -16.866501 -1.222700 1.955500
v -17.288300 -1.185300 3.289100
v -16.655701 -1.198000 2.053800
v -17.061600 -1.160800 3.340100
v -16.452801 -1.130300 2.148600
v -16.843700 -1.093900 3.389400
v -16.266701 -1.018500 2.235600
v -16.643999 -0.982700 3.434700
v -16.102100 -0.871200 2.312500
v -16.466700 -0.837000 3.474900
v -15.968900 -0.689300 2.375000
v -16.323900 -0.656000 3.507600
v -15.869300 -0.482900 2.421800
v -16.216700 -0.451000 3.532200
v -15.808300 -0.258900 2.450600
v -16.151100 -0.228400 3.547300
v -15.868400 0.312500 6.410200
v -15.841400 0.039200 6.410200
v -15.923500 0.017900 3.957400
v -15.949800 0.290400 3.957500
v -15.948100 0.575200 6.410200
v -16.027000 0.552600 3.957800
v -16.077499 0.817400 6.410200
v -16.152100 0.794300 3.958200
v -16.251699 1.029700 6.410200
v -16.320499 1.006200 3.958700
v -16.464001 1.203900 6.410200
v -16.525900 1.180200 3.959200
v -16.706200 1.333300 6.410200
v -16.760599 1.309500 3.959700
v -16.969200 1.412300 6.410200
v -17.015800 1.388600 3.960200
v -17.242201 1.441400 6.410200
v -17.279499 1.417200 3.961000
v -17.515400 1.413100 6.410200
v -17.546400 1.389400 3.961100
v -17.777700 1.332000 6.410200
v -17.801300 1.308700 3.961300
v -18.020901 1.204400 6.410200
v -18.037399 1.181300 3.961600
v -18.232700 1.029700 6.410200
v -18.243299 1.007200 3.961800
v -18.406300 0.816900 6.410200
v -18.412201 0.795400 3.961900
v -18.538300 0.576100 6.410200
v -18.540001 0.555300 3.962000
v -18.613899 0.312100 6.410200
v -18.613899 0.292500 3.961800
v -18.643700 0.039100 6.410200
v -18.642099 0.020600 3.961900
v -18.616100 -0.234100 6.410200
v -18.615000 -0.251600 3.961700
v -18.536400 -0.496900 6.410200
v -18.537001 -0.513300 3.961500
v -18.406900 -0.739000 6.410200
v -18.410601 -0.754600 3.961300
v -18.232700 -0.951300 6.410200
v -18.240700 -0.966200 3.961100
v -18.020399 -1.125500 6.410200
v -18.033899 -1.139800 3.960800
v -17.778601 -1.255600 6.410200
v -17.798401 -1.269500 3.960500
v -17.514999 -1.332500 6.410200
v -17.542200 -1.346900 3.960100
v -17.242100 -1.363800 6.410200
v -17.278799 -1.377200 3.959200
v -16.969200 -1.334000 6.410200
v -17.011801 -1.348800 3.959300
v -16.705999 -1.255700 6.410200
v -16.756701 -1.271100 3.958900
v -16.465099 -1.123700 6.410200
v -16.523399 -1.140500 3.958600
v -16.316401 -0.970000 3.958000
v -16.250099 -0.952800 6.410200
v -16.078199 -0.738700 6.410200
v -16.150299 -0.757300 3.957800
v -15.948100 -0.496900 6.410200
v -16.025400 -0.516400 3.957500
v -15.868400 -0.234100 6.410200
v -15.949000 -0.254600 3.957400
v -16.080700 0.253500 3.690000
v -16.057100 0.008900 3.690300
v -16.150499 0.488800 3.688800
v -16.263800 0.705800 3.686700
v -16.416300 0.896000 3.683900
v -16.602301 1.052200 3.680500
v -16.814699 1.168300 3.676500
v -17.045500 1.239500 3.672300
v -17.284300 1.265300 3.668000
v -17.521700 1.240500 3.664500
v -17.749001 1.168300 3.661100
v -17.959400 1.054000 3.658000
v -18.143000 0.897900 3.655200
v -18.293699 0.707900 3.652800
v -18.407600 0.492300 3.651100
v -18.473900 0.256500 3.649700
v -18.499100 0.012400 3.649300
v -18.475201 -0.232000 3.649500
v -18.406099 -0.467000 3.650400
v -18.293699 -0.683700 3.652000
v -18.142700 -0.873600 3.654100
v -17.958599 -1.029600 3.656700
v -17.749001 -1.146100 3.659800
v -17.520800 -1.215800 3.663100
v -17.285601 -1.242900 3.666300
v -17.044701 -1.217600 3.670900
v -16.813801 -1.147700 3.675200
v -16.602400 -1.030700 3.679300
v -16.414700 -0.877500 3.682800
v -16.263700 -0.686700 3.686000
v -16.150101 -0.470500 3.688200
v -16.080500 -0.235600 3.689700
v 12.179600 0.000000 1.358100
v 12.179600 0.264900 1.332000
v 12.179600 0.519700 1.254700
v 12.179600 0.754500 1.129200
v 12.179600 0.960300 0.960300
v 12.179600 1.129200 0.754500
v 12.179600 1.254700 0.519700
v 12.179600 1.332000 0.264900
v 12.179600 1.358100 0.000000
v 12.179600 1.332000 -0.265000
v 12.179600 1.254700 -0.519700
v 12.179600 1.129200 -0.754500
v 12.179600 0.960300 -0.960300
v 12.179600 0.754500 -1.129200
v 12.179600 0.519700 -1.254700
v 12.179600 0.264900 -1.332000
v 12.179600 0.000000 -1.358100
v 12.179600 -0.264900 -1.332000
v 12.179600 -0.519700 -1.254700
v 12.179600 -0.754500 -1.129200
v 12.179600 -0.960300 -0.960300
v 12.179600 -1.129200 -0.754500
v 12.179600 -1.254700 -0.519700
v 12.179600 -1.332000 -0.264900
v 12.179600 -1.358100 0.000000
v 12.179600 -1.332000 0.264900
v 12.179600 -1.254700 0.519700
v 12.179600 -1.129200 0.754500
v 12.179600 -0.960300 0.960300
v 12.179600 -0.754500 1.129200
v 12.179600 -0.519700 1.254700
v 12.179600 -0.264900 1.332000
v -16.062401 0.273900 6.410200
v -16.039301 0.039200 6.410200
v -16.130899 0.499500 6.410200
v -16.242001 0.707500 6.410200
v -16.391600 0.889800 6.410200
v -16.573900 1.039400 6.410200
v -16.781900 1.150500 6.410200
v -17.007700 1.218400 6.410200
v -17.242201 1.243300 6.410200
v -17.476801 1.219000 6.410200
v -17.702101 1.149400 6.410200
v -17.910900 1.039800 6.410200
v -18.092800 0.889800 6.410200
v -18.241899 0.707100 6.410200
v -18.355301 0.500300 6.410200
v -18.420200 0.273500 6.410200
v -18.445801 0.039100 6.410200
v -18.422001 -0.195500 6.410200
v -18.353600 -0.421200 6.410200
v -18.242399 -0.629100 6.410200
v -18.092800 -0.811400 6.410200
v -17.910500 -0.961000 6.410200
v -17.702801 -1.072700 6.410200
v -17.476500 -1.138800 6.410200
v -17.242201 -1.165600 6.410200
v -17.007700 -1.140000 6.410200
v -16.781700 -1.072800 6.410200
v -16.574900 -0.959400 6.410200
v -16.390301 -0.812700 6.410200
v -16.242599 -0.628800 6.410200
v -16.130899 -0.421200 6.410200
v -16.062401 -0.195500 6.410200
v 6.970200 0.000000 1.358100
v 6.970200 0.264900 1.332000
v 6.970200 0.519700 1.254700
v 6.970200 0.754500 1.129200
v 6.970200 0.960300 0.960300
v 6.970200 1.129200 0.754500
v 6.970200 1.254700 0.519700
v 6.970200 1.332000 0.264900
v 6.970200 1.358100 0.000000
v 6.970200 1.332000 -0.265000
v 6.970200 1.254700 -0.519700
v 6.970200 1.129200 -0.754500
v 6.970200 0.960300 -0.960300
v 6.970200 0.754500 -1.129200
v 6.970200 0.519700 -1.254700
v 6.970200 0.265000 -1.332000
v 6.970200 0.000000 -1.358100
v 6.970200 -0.265000 -1.332000
v 6.970200 -0.519700 -1.254700
v 6.970200 -0.754500 -1.129200
v 6.970200 -0.960300 -0.960300
v 6.970200 -1.129200 -0.754500
v 6.970200 -1.254700 -0.519700
v 6.970200 -1.332000 -0.265000
v 6.970200 -1.358100 0.000000
v 6.970200 -1.332000 0.265000
v 6.970200 -1.254700 0.519700
v 6.970200 -1.129200 0.754500
v 6.970200 -0.960300 0.960300
v 6.970200 -0.754500 1.129200
v 6.970200 -0.519700 1.254700
v 6.970200 -0.264900 1.332000
v -16.062401 0.273900 3.830500
v -16.039301 0.039200 3.830500
v -16.130899 0.499500 3.830500
v -16.242001 0.707500 3.830500
v -16.391600 0.889800 3.830500
v -16.573900 1.039400 3.830500
v -16.781900 1.150500 3.830500
v -17.007700 1.218400 3.830500
v -17.242201 1.243300 3.830500
v -17.476801 1.219000 3.830500
v -17.702101 1.149400 3.830500
v -17.910900 1.039800 3.830500
v -18.092800 0.889800 3.830500
v -18.241899 0.707100 3.830500
v -18.355301 0.500300 3.830500
v -18.420200 0.273500 3.830500
v -18.445801 0.039100 3.830500
v -18.422001 -0.195500 3.830500
v -18.353600 -0.421200 3.830500
v -18.242399 -0.629100 3.830500
v -18.092800 -0.811400 3.830500
v -17.910500 -0.961000 3.830500
v -17.702801 -1.072700 3.830500
v -17.476500 -1.138800 3.830500
v -17.242201 -1.165600 3.830500
v -17.007700 -1.140000 3.830500
v -16.781700 -1.072800 3.830500
v -16.574900 -0.959400 3.830500
v -16.390301 -0.812700 3.830500
v -16.242599 -0.628800 3.830500
v -16.130899 -0.421200 3.830500
v -16.062401 -0.195500 3.830500
v -16.004700 0.020400 6.369400
v -16.043501 0.327000 6.369400
v -16.196699 0.287700 6.369400
v -16.196899 0.020400 6.369400
v -16.157200 0.614400 6.369400
v -16.339199 0.514300 6.369400
v -16.338900 0.864400 6.369400
v -16.445499 0.764200 6.369400
v -16.577000 1.061400 6.369400
v -16.713600 0.846200 6.369400
v -16.856600 1.193000 6.369400
v -16.907499 1.036300 6.369400
v -17.160200 1.250900 6.369400
v -17.174900 1.017400 6.369400
v -17.468599 1.231500 6.369400
v -17.439400 1.078400 6.369400
v -17.762600 1.136000 6.369400
v -17.686199 0.973700 6.369400
v -18.023500 0.970400 6.369400
v -17.897900 0.818600 6.369400
v -18.235100 0.745100 6.369400
v -18.093300 0.642100 6.369400
v -18.383900 0.474300 6.369400
v -18.149700 0.381500 6.369400
v -18.460800 0.174900 6.369400
v -18.307800 0.155600 6.369400
v -18.460800 -0.134100 6.369400
v -18.232500 -0.105300 6.369400
v -18.383900 -0.433500 6.369400
v -18.260799 -0.384700 6.369400
v -18.235100 -0.704300 6.369400
v -18.065901 -0.581400 6.369400
v -18.023500 -0.929600 6.369400
v -17.904100 -0.785300 6.369400
v -17.762600 -1.095200 6.369400
v -17.675301 -0.909700 6.369400
v -17.468599 -1.190700 6.369400
v -17.425800 -0.966300 6.369400
v -17.160200 -1.210100 6.369400
v -17.169600 -1.060000 6.369400
v -16.856600 -1.152100 6.369400
v -16.924500 -0.943300 6.369400
v -16.577000 -1.020600 6.369400
v -16.646299 -0.911300 6.369400
v -16.338900 -0.823600 6.369400
v -16.512400 -0.660600 6.369400
v -16.157200 -0.573500 6.369400
v -16.312000 -0.488400 6.369400
v -16.043501 -0.286200 6.369400
v -16.262400 -0.230000 6.369400
v 12.091300 -0.003500 -1.438900
v 12.091300 0.347100 -1.394600
v 12.091300 0.304600 -1.229200
v 12.091300 -0.003500 -1.231600
v 12.091300 0.675500 -1.264600
v 12.091300 0.567600 -1.068200
v 12.091300 0.961400 -1.056900
v 12.091300 0.853300 -0.941900
v 12.091300 1.186600 -0.784700
v 12.091300 0.954300 -0.637300
v 12.091300 1.337000 -0.465000
v 12.091300 1.167900 -0.410100
v 12.091300 1.403200 -0.118000
v 12.091300 1.151200 -0.102100
v 12.091300 1.381000 0.234600
v 12.091300 1.215800 0.203100
v 12.091300 1.271800 0.570600
v 12.091300 1.096800 0.488200
v 12.091300 1.082500 0.868900
v 12.091300 0.918700 0.733400
v 12.091300 0.825000 1.110800
v 12.091300 0.713900 0.957800
v 12.091300 0.515400 1.281000
v 12.091300 0.415300 1.028200
v 12.091300 0.173200 1.368800
v 12.091300 0.152300 1.203700
v 12.091300 -0.180100 1.368800
v 12.091300 -0.149000 1.122500
v 12.091300 -0.522300 1.281000
v 12.091300 -0.469700 1.148100
v 12.091300 -0.831900 1.110800
v 12.091300 -0.699300 0.928200
v 12.091300 -1.089500 0.868900
v 12.091300 -0.933700 0.740100
v 12.091300 -1.278800 0.570600
v 12.091300 -1.078600 0.476400
v 12.091300 -1.387900 0.234600
v 12.091300 -1.145800 0.188400
v 12.091300 -1.410100 -0.118000
v 12.091300 -1.248200 -0.107800
v 12.091300 -1.343900 -0.465000
v 12.091300 -1.118600 -0.391800
v 12.091300 -1.193500 -0.784700
v 12.091300 -1.075600 -0.709900
v 12.091300 -0.968300 -1.056900
v 12.091300 -0.792500 -0.869700
v 12.091300 -0.682500 -1.264600
v 12.091300 -0.590600 -1.097500
v 12.091300 -0.354000 -1.394600
v 12.091300 -0.293300 -1.158400
# 676 positions

vt 0.894068 0.262269
vt 0.784817 0.262021
vt 0.784817 0.253267
vt 0.894068 0.253267
vt 0.894068 0.270926
vt 0.784817 0.270441
vt 0.894068 0.278903
vt 0.784817 0.278199
vt 0.894068 0.285894
vt 0.784817 0.284998
vt 0.063261 0.892660
vt 0.062558 0.783408
vt 0.069357 0.783408
vt 0.070252 0.892660
vt 0.055284 0.892660
vt 0.054800 0.783408
vt 0.046627 0.892660
vt 0.046379 0.783408
vt 0.037626 0.892660
vt 0.037626 0.783408
vt 0.028625 0.892660
vt 0.028873 0.783408
vt 0.019968 0.892660
vt 0.020452 0.783408
vt 0.011991 0.892660
vt 0.012694 0.783408
vt 0.005000 0.892660
vt 0.005896 0.783408
vt 0.068743 0.157108
vt 0.177995 0.157811
vt 0.177995 0.151013
vt 0.068743 0.150117
vt 0.068743 0.165085
vt 0.177995 0.165569
vt 0.068743 0.173742
vt 0.177995 0.173990
vt 0.068743 0.182743
vt 0.177995 0.182743
vt 0.068743 0.191744
vt 0.177995 0.191496
vt 0.068743 0.200401
vt 0.177995 0.199917
vt 0.068743 0.208378
vt 0.177995 0.207675
vt 0.068743 0.215369
vt 0.177995 0.214474
vt 0.988009 0.005000
vt 0.987306 0.114252
vt 0.994104 0.114252
vt 0.995000 0.005000
vt 0.980032 0.005000
vt 0.979548 0.114252
vt 0.971375 0.005000
vt 0.971127 0.114252
vt 0.962374 0.005000
vt 0.962374 0.114252
vt 0.953373 0.005000
vt 0.953621 0.114252
vt 0.944716 0.005000
vt 0.945200 0.114252
vt 0.936739 0.005000
vt 0.937442 0.114252
vt 0.929748 0.005000
vt 0.930643 0.114252
vt 0.894068 0.227632
vt 0.784817 0.228335
vt 0.784817 0.221537
vt 0.894068 0.220641
vt 0.894068 0.235609
vt 0.784817 0.236094
vt 0.894068 0.244266
vt 0.784817 0.244514
vt 0.629243 0.260906
vt 0.629243 0.253267
vt 0.775509 0.253267
vt 0.775509 0.261647
vt 0.629243 0.268253
vt 0.775509 0.269703
vt 0.629243 0.275025
vt 0.775509 0.277129
vt 0.629243 0.280957
vt 0.775509 0.283638
vt 0.059384 0.627835
vt 0.065315 0.627835
vt 0.067997 0.774101
vt 0.061487 0.774101
vt 0.052612 0.627835
vt 0.054062 0.774101
vt 0.045265 0.627835
vt 0.046006 0.774101
vt 0.037626 0.627835
vt 0.037626 0.774101
vt 0.029987 0.627835
vt 0.029246 0.774101
vt 0.022641 0.627835
vt 0.021191 0.774101
vt 0.015869 0.627835
vt 0.013765 0.774101
vt 0.009937 0.627835
vt 0.007255 0.774101
vt 0.333568 0.160986
vt 0.333568 0.155054
vt 0.187302 0.152372
vt 0.187302 0.158882
vt 0.333568 0.167758
vt 0.187302 0.166308
vt 0.333568 0.175105
vt 0.187302 0.174363
vt 0.333568 0.182743
vt 0.187302 0.182743
vt 0.333568 0.190382
vt 0.187302 0.191123
vt 0.333568 0.197729
vt 0.187302 0.199179
vt 0.333568 0.204501
vt 0.187302 0.206604
vt 0.333568 0.210433
vt 0.187302 0.213114
vt 0.984131 0.269825
vt 0.990063 0.269825
vt 0.992745 0.123559
vt 0.986235 0.123559
vt 0.977359 0.269825
vt 0.978810 0.123559
vt 0.970013 0.269825
vt 0.970754 0.123559
vt 0.962374 0.269825
vt 0.962374 0.123559
vt 0.954735 0.269825
vt 0.953994 0.123559
vt 0.947388 0.269825
vt 0.945938 0.123559
vt 0.940616 0.269825
vt 0.938513 0.123559
vt 0.934685 0.269825
vt 0.932003 0.123559
vt 0.629243 0.231510
vt 0.629243 0.225578
vt 0.775509 0.222897
vt 0.775509 0.229406
vt 0.629243 0.238282
vt 0.775509 0.236832
vt 0.629243 0.245629
vt 0.775509 0.244888
vt 0.113600 0.260775
vt 0.113880 0.253145
vt 0.136359 0.253267
vt 0.136359 0.260775
vt 0.112766 0.268151
vt 0.136359 0.267993
vt 0.111403 0.275016
vt 0.136359 0.274646
vt 0.109542 0.281123
vt 0.136359 0.280478
vt 0.071737 0.105822
vt 0.076700 0.108133
vt 0.064837 0.134950
vt 0.059004 0.134950
vt 0.065946 0.103123
vt 0.052352 0.134950
vt 0.059521 0.100112
vt 0.045133 0.134950
vt 0.052687 0.096894
vt 0.037626 0.134950
vt 0.046073 0.093871
vt 0.030119 0.134950
vt 0.039715 0.090983
vt 0.022900 0.134950
vt 0.033859 0.088333
vt 0.016248 0.134950
vt 0.028727 0.086017
vt 0.010415 0.134950
vt 0.877283 0.160344
vt 0.875386 0.154219
vt 0.826453 0.155532
vt 0.826453 0.161365
vt 0.878689 0.167320
vt 0.826453 0.168017
vt 0.879559 0.174883
vt 0.826453 0.175236
vt 0.879856 0.182743
vt 0.826453 0.182743
vt 0.879570 0.190607
vt 0.826453 0.190251
vt 0.826453 0.197469
vt 0.878710 0.198169
vt 0.826453 0.204121
vt 0.877312 0.205143
vt 0.826453 0.209954
vt 0.875421 0.211267
vt 0.983752 0.762710
vt 0.966126 0.809370
vt 0.971258 0.811678
vt 0.989585 0.762710
vt 0.977100 0.762710
vt 0.960267 0.806724
vt 0.969881 0.762710
vt 0.953907 0.803838
vt 0.962374 0.762710
vt 0.947386 0.800856
vt 0.954867 0.762710
vt 0.940447 0.797603
vt 0.947648 0.762710
vt 0.934028 0.794589
vt 0.940996 0.762710
vt 0.928242 0.791884
vt 0.935163 0.762710
vt 0.923279 0.789562
vt 0.136359 0.231889
vt 0.111374 0.231314
vt 0.109507 0.225234
vt 0.136359 0.226057
vt 0.136359 0.238542
vt 0.112748 0.238156
vt 0.136359 0.245760
vt 0.113592 0.245518
vt 0.153241 0.260439
vt 0.153241 0.253267
vt 0.617365 0.253267
vt 0.617365 0.260439
vt 0.153241 0.267334
vt 0.617365 0.267334
vt 0.153241 0.273689
vt 0.617365 0.273689
vt 0.153241 0.279259
vt 0.617365 0.279259
vt 0.058047 0.151832
vt 0.063617 0.151832
vt 0.063617 0.615956
vt 0.058047 0.615956
vt 0.051693 0.151832
vt 0.051693 0.615956
vt 0.044798 0.151832
vt 0.044798 0.615956
vt 0.037626 0.151832
vt 0.037626 0.615956
vt 0.030454 0.151832
vt 0.030454 0.615956
vt 0.023560 0.151832
vt 0.023560 0.615956
vt 0.017205 0.151832
vt 0.017205 0.615956
vt 0.011635 0.151832
vt 0.011635 0.615956
vt 0.809571 0.162322
vt 0.809571 0.156752
vt 0.345447 0.156752
vt 0.345447 0.162322
vt 0.809571 0.168677
vt 0.345447 0.168677
vt 0.809571 0.175571
vt 0.345447 0.175571
vt 0.809571 0.182743
vt 0.345447 0.182743
vt 0.809571 0.189915
vt 0.345447 0.189915
vt 0.809571 0.196810
vt 0.345447 0.196810
vt 0.809571 0.203164
vt 0.345447 0.203164
vt 0.809571 0.208734
vt 0.345447 0.208734
vt 0.982795 0.745828
vt 0.988365 0.745828
vt 0.988365 0.281704
vt 0.982795 0.281704
vt 0.976440 0.745828
vt 0.976440 0.281704
vt 0.969546 0.745828
vt 0.969546 0.281704
vt 0.962374 0.745828
vt 0.962374 0.281704
vt 0.955202 0.745828
vt 0.955202 0.281704
vt 0.948307 0.745828
vt 0.948307 0.281704
vt 0.941953 0.745828
vt 0.941953 0.281704
vt 0.936383 0.745828
vt 0.936383 0.281704
vt 0.153241 0.232846
vt 0.153241 0.227276
vt 0.617365 0.227276
vt 0.617365 0.232846
vt 0.153241 0.239201
vt 0.617365 0.239201
vt 0.153241 0.246096
vt 0.617365 0.246096
vt 0.091814 0.260252
vt 0.092347 0.252894
vt 0.090244 0.267348
vt 0.087691 0.273916
vt 0.084242 0.279708
vt 0.085001 0.078609
vt 0.088733 0.082834
vt 0.080715 0.073762
vt 0.076041 0.068478
vt 0.071154 0.062981
vt 0.066485 0.057633
vt 0.061983 0.052507
vt 0.057829 0.047765
vt 0.054190 0.043613
vt 0.921198 0.161823
vt 0.917790 0.156014
vt 0.923745 0.168438
vt 0.925285 0.175633
vt 0.925822 0.183105
vt 0.925283 0.190580
vt 0.923713 0.197764
vt 0.921168 0.204384
vt 0.917746 0.210182
vt 0.942177 0.849842
vt 0.945816 0.854003
vt 0.938028 0.845104
vt 0.933520 0.839966
vt 0.928878 0.834664
vt 0.923941 0.829126
vt 0.919267 0.823842
vt 0.914987 0.819010
vt 0.911249 0.814777
vt 0.087720 0.231889
vt 0.084292 0.226097
vt 0.090267 0.238448
vt 0.091825 0.245535
vt 0.368895 0.424046
vt 0.369715 0.456045
vt 0.362960 0.456191
vt 0.362105 0.424323
vt 0.375422 0.423211
vt 0.376210 0.455613
vt 0.382194 0.454904
vt 0.381436 0.421855
vt 0.387440 0.453953
vt 0.386702 0.420028
vt 0.137882 0.051567
vt 0.139044 0.056711
vt 0.105119 0.067335
vt 0.102893 0.062541
vt 0.136561 0.045702
vt 0.100352 0.057079
vt 0.135128 0.039342
vt 0.097591 0.051153
vt 0.133640 0.032751
vt 0.094720 0.044996
vt 0.132228 0.026326
vt 0.091852 0.038843
vt 0.130868 0.020169
vt 0.089092 0.032934
vt 0.129608 0.014471
vt 0.086542 0.027475
vt 0.128505 0.009502
vt 0.084310 0.022711
vt 0.284315 0.381443
vt 0.279058 0.380538
vt 0.279843 0.424733
vt 0.285132 0.426563
vt 0.290282 0.382126
vt 0.291140 0.427940
vt 0.296800 0.382534
vt 0.297693 0.428757
vt 0.303549 0.382686
vt 0.304483 0.429060
vt 0.310301 0.382549
vt 0.311272 0.428777
vt 0.316793 0.382140
vt 0.317799 0.427943
vt 0.322774 0.381472
vt 0.323810 0.426586
vt 0.328014 0.380573
vt 0.329079 0.424760
vt 0.870430 0.883069
vt 0.871530 0.888065
vt 0.915716 0.874827
vt 0.913490 0.870033
vt 0.869178 0.877383
vt 0.910949 0.864574
vt 0.908186 0.858642
vt 0.867819 0.871194
vt 0.905318 0.852489
vt 0.866407 0.864796
vt 0.902449 0.846338
vt 0.864919 0.858181
vt 0.899683 0.840418
vt 0.863480 0.851823
vt 0.897145 0.834988
vt 0.862158 0.845997
vt 0.894901 0.830185
vt 0.860985 0.840823
vt 0.342755 0.421831
vt 0.343727 0.454878
vt 0.338446 0.453923
vt 0.337448 0.420008
vt 0.348777 0.423197
vt 0.349708 0.455595
vt 0.355313 0.424037
vt 0.356203 0.456036
vt 0.371985 0.539568
vt 0.364011 0.539568
vt 0.363389 0.468002
vt 0.371340 0.468004
vt 0.379650 0.539568
vt 0.378990 0.468013
vt 0.386717 0.539568
vt 0.386043 0.468025
vt 0.392911 0.539568
vt 0.392225 0.468039
vt 0.224659 0.056915
vt 0.224659 0.063110
vt 0.153131 0.061102
vt 0.153145 0.055109
vt 0.224659 0.049849
vt 0.153160 0.048261
vt 0.224659 0.042175
vt 0.153174 0.040815
vt 0.224659 0.034209
vt 0.153198 0.033121
vt 0.224659 0.026238
vt 0.153201 0.025334
vt 0.224659 0.018585
vt 0.153206 0.017896
vt 0.224659 0.011489
vt 0.153215 0.011008
vt 0.224659 0.005309
vt 0.153221 0.005000
vt 0.279743 0.284384
vt 0.273534 0.284384
vt 0.274191 0.355822
vt 0.280371 0.355819
vt 0.286769 0.284384
vt 0.287376 0.355816
vt 0.294472 0.284384
vt 0.295044 0.355822
vt 0.302437 0.284384
vt 0.302977 0.355819
vt 0.310409 0.284384
vt 0.310919 0.355825
vt 0.318077 0.284384
vt 0.318555 0.355831
vt 0.325140 0.284384
vt 0.325596 0.355837
vt 0.331335 0.284384
vt 0.331770 0.355843
vt 0.775341 0.886156
vt 0.775341 0.892351
vt 0.846799 0.892584
vt 0.846808 0.886550
vt 0.775341 0.879101
vt 0.846817 0.879679
vt 0.775341 0.871410
vt 0.846829 0.872204
vt 0.775341 0.863448
vt 0.846855 0.864518
vt 0.775341 0.855485
vt 0.846852 0.856728
vt 0.775341 0.847806
vt 0.846864 0.849285
vt 0.775341 0.840777
vt 0.846872 0.842478
vt 0.846890 0.836438
vt 0.775341 0.834504
vt 0.341314 0.539568
vt 0.335067 0.539568
vt 0.334565 0.468019
vt 0.340771 0.468013
vt 0.348369 0.539568
vt 0.347800 0.468004
vt 0.356037 0.539568
vt 0.355439 0.468002
vt 0.370263 0.460200
vt 0.363127 0.460208
vt 0.377129 0.460165
vt 0.383460 0.460103
vt 0.389010 0.460022
vt 0.145013 0.052880
vt 0.145113 0.058307
vt 0.144897 0.046683
vt 0.144774 0.039949
vt 0.144649 0.032981
vt 0.144547 0.026054
vt 0.144447 0.019422
vt 0.144357 0.013283
vt 0.144275 0.007926
vt 0.282924 0.364838
vt 0.277380 0.364768
vt 0.289214 0.364888
vt 0.296094 0.364928
vt 0.303216 0.364940
vt 0.310348 0.364934
vt 0.317204 0.364908
vt 0.323527 0.364861
vt 0.329068 0.364800
vt 0.855681 0.884353
vt 0.855757 0.889725
vt 0.855591 0.878238
vt 0.855494 0.871579
vt 0.855401 0.864717
vt 0.855267 0.857688
vt 0.855141 0.850951
vt 0.855022 0.844783
vt 0.854919 0.839306
vt 0.342831 0.460083
vt 0.337264 0.459989
vt 0.349139 0.460147
vt 0.355993 0.460191
vt 0.077420 0.259295
vt 0.078045 0.252506
vt 0.075608 0.265822
vt 0.072679 0.271836
vt 0.068743 0.277102
vt 0.282658 0.457841
vt 0.276849 0.454853
vt 0.289273 0.460067
vt 0.296468 0.461424
vt 0.303940 0.461894
vt 0.311415 0.461430
vt 0.318599 0.460064
vt 0.325219 0.457847
vt 0.331017 0.454859
vt 0.072769 0.233155
vt 0.068883 0.227848
vt 0.075676 0.239178
vt 0.077455 0.245713
vt 0.167780 0.533990
vt 0.167780 0.527474
vt 0.175509 0.526713
vt 0.176781 0.533106
vt 0.182944 0.524457
vt 0.185438 0.530480
vt 0.189794 0.520796
vt 0.193415 0.526214
vt 0.195799 0.515868
vt 0.200406 0.520475
vt 0.200727 0.509863
vt 0.206145 0.513484
vt 0.204389 0.503012
vt 0.210411 0.505507
vt 0.206644 0.495578
vt 0.213034 0.496850
vt 0.207406 0.487849
vt 0.213921 0.487849
vt 0.206644 0.480117
vt 0.213034 0.478847
vt 0.204389 0.472685
vt 0.210408 0.470190
vt 0.200727 0.465834
vt 0.206145 0.462213
vt 0.195799 0.459830
vt 0.200406 0.455222
vt 0.189794 0.454901
vt 0.193415 0.449483
vt 0.182944 0.451240
vt 0.185438 0.445220
vt 0.175509 0.448984
vt 0.176781 0.442594
vt 0.167780 0.448223
vt 0.167780 0.441707
vt 0.160051 0.448984
vt 0.158779 0.442592
vt 0.152617 0.451240
vt 0.150122 0.445220
vt 0.145766 0.454901
vt 0.142145 0.449483
vt 0.139761 0.459830
vt 0.135154 0.455222
vt 0.134833 0.465834
vt 0.129415 0.462213
vt 0.131171 0.472685
vt 0.125149 0.470190
vt 0.128916 0.480119
vt 0.122526 0.478847
vt 0.128154 0.487849
vt 0.121636 0.487849
vt 0.128916 0.495578
vt 0.122526 0.496850
vt 0.131171 0.503012
vt 0.125152 0.505507
vt 0.134833 0.509863
vt 0.129415 0.513484
vt 0.139761 0.515868
vt 0.135154 0.520475
vt 0.145766 0.520796
vt 0.142145 0.526214
vt 0.152617 0.524457
vt 0.150122 0.530480
vt 0.160051 0.526713
vt 0.158779 0.533106
vt 0.300261 0.508249
vt 0.294601 0.507122
vt 0.295275 0.500274
vt 0.301049 0.500274
vt 0.297935 0.515913
vt 0.292602 0.513705
vt 0.294160 0.522980
vt 0.289360 0.519774
vt 0.289077 0.529175
vt 0.284995 0.525093
vt 0.282883 0.534257
vt 0.279676 0.529458
vt 0.275816 0.538033
vt 0.273607 0.532699
vt 0.268143 0.540338
vt 0.267019 0.534680
vt 0.260177 0.541187
vt 0.260177 0.535407
vt 0.252206 0.540361
vt 0.253332 0.534698
vt 0.244553 0.537995
vt 0.246758 0.532667
vt 0.237457 0.534272
vt 0.240666 0.529469
vt 0.231277 0.529175
vt 0.235359 0.525093
vt 0.226212 0.522966
vt 0.231008 0.519762
vt 0.222360 0.515940
vt 0.227700 0.513728
vt 0.220155 0.508237
vt 0.225806 0.507111
vt 0.219285 0.500271
vt 0.225059 0.500271
vt 0.220090 0.492300
vt 0.225754 0.493426
vt 0.222416 0.484632
vt 0.227749 0.486841
vt 0.226194 0.477569
vt 0.230994 0.480775
vt 0.231277 0.471374
vt 0.235359 0.475456
vt 0.237471 0.466292
vt 0.240678 0.471091
vt 0.244526 0.462496
vt 0.246738 0.467832
vt 0.252217 0.460252
vt 0.253341 0.465903
vt 0.260180 0.459339
vt 0.260177 0.465121
vt 0.268143 0.460208
vt 0.267019 0.465868
vt 0.275822 0.462493
vt 0.273613 0.467829
vt 0.282851 0.466344
vt 0.279647 0.471138
vt 0.289124 0.471330
vt 0.285033 0.475418
vt 0.294140 0.477577
vt 0.289343 0.480784
vt 0.297935 0.484632
vt 0.292602 0.486841
vt 0.300261 0.492300
vt 0.294601 0.493426
vt 0.243796 0.117106
vt 0.243796 0.109376
vt 0.091799 0.109376
vt 0.091799 0.117106
vt 0.243796 0.101942
vt 0.091799 0.101942
vt 0.243796 0.095091
vt 0.091799 0.095091
vt 0.243796 0.089087
vt 0.091799 0.089087
vt 0.212504 0.436381
vt 0.218509 0.436381
vt 0.218509 0.284384
vt 0.212504 0.284384
vt 0.225359 0.436381
vt 0.225359 0.284384
vt 0.232794 0.436381
vt 0.232794 0.284384
vt 0.240523 0.436381
vt 0.240523 0.284384
vt 0.248255 0.436381
vt 0.248255 0.284384
vt 0.255686 0.436381
vt 0.255686 0.284384
vt 0.262537 0.436381
vt 0.262537 0.284384
vt 0.268542 0.436381
vt 0.268542 0.284384
vt 0.230135 0.061038
vt 0.230135 0.055033
vt 0.382132 0.055033
vt 0.382132 0.061038
vt 0.230135 0.048182
vt 0.382132 0.048182
vt 0.230135 0.040751
vt 0.382132 0.040748
vt 0.230135 0.033019
vt 0.382132 0.033019
vt 0.230135 0.025287
vt 0.382132 0.025290
vt 0.230135 0.017856
vt 0.382132 0.017856
vt 0.230135 0.011005
vt 0.382132 0.011005
vt 0.230135 0.005000
vt 0.382132 0.005000
vt 0.151473 0.284384
vt 0.157478 0.284384
vt 0.157478 0.436381
vt 0.151473 0.436381
vt 0.164329 0.284384
vt 0.164329 0.436381
vt 0.171760 0.284384
vt 0.171763 0.436381
vt 0.179492 0.284384
vt 0.179492 0.436381
vt 0.187224 0.284384
vt 0.187222 0.436381
vt 0.194656 0.284384
vt 0.194656 0.436381
vt 0.201506 0.284384
vt 0.201506 0.436381
vt 0.207511 0.284384
vt 0.207511 0.436381
vt 0.243796 0.145125
vt 0.243796 0.139120
vt 0.091799 0.139120
vt 0.091799 0.145125
vt 0.243796 0.132269
vt 0.091799 0.132269
vt 0.243796 0.124835
vt 0.091799 0.124835
vt 0.086713 0.438315
vt 0.093561 0.438315
vt 0.093561 0.363046
vt 0.086713 0.363046
vt 0.080131 0.438315
vt 0.080131 0.363046
vt 0.074062 0.438315
vt 0.074062 0.363046
vt 0.068743 0.438315
vt 0.068743 0.363046
vt 0.476289 0.419902
vt 0.476289 0.414583
vt 0.401020 0.414583
vt 0.401020 0.419902
vt 0.476289 0.425971
vt 0.401020 0.425971
vt 0.476289 0.432559
vt 0.401020 0.432559
vt 0.476289 0.439401
vt 0.401020 0.439401
vt 0.476289 0.446246
vt 0.401020 0.446246
vt 0.476289 0.452820
vt 0.401020 0.452820
vt 0.476289 0.458912
vt 0.401020 0.458912
vt 0.476289 0.464219
vt 0.401020 0.464219
vt 0.449395 0.005000
vt 0.454726 0.005000
vt 0.454726 0.080269
vt 0.449395 0.080269
vt 0.443361 0.005000
vt 0.443361 0.080269
vt 0.436744 0.005000
vt 0.436744 0.080269
vt 0.429904 0.005000
vt 0.429904 0.080269
vt 0.423060 0.005000
vt 0.423060 0.080269
vt 0.416474 0.005000
vt 0.416474 0.080269
vt 0.410408 0.005000
vt 0.410408 0.080269
vt 0.405089 0.005000
vt 0.405089 0.080269
vt 0.403733 0.289703
vt 0.403733 0.284384
vt 0.479002 0.284384
vt 0.479002 0.289703
vt 0.403733 0.295763
vt 0.479002 0.295763
vt 0.403733 0.302366
vt 0.479002 0.302366
vt 0.403733 0.309203
vt 0.479002 0.309203
vt 0.403733 0.316045
vt 0.479002 0.316045
vt 0.403733 0.322639
vt 0.479002 0.322639
vt 0.403733 0.328673
vt 0.479002 0.328673
vt 0.403733 0.334059
vt 0.479002 0.334059
vt 0.113052 0.438315
vt 0.118418 0.438315
vt 0.118418 0.363046
vt 0.113052 0.363046
vt 0.106995 0.438315
vt 0.106995 0.363046
vt 0.100409 0.438315
vt 0.100409 0.363046
vt 0.281019 0.144521
vt 0.273585 0.142265
vt 0.266734 0.138603
vt 0.296477 0.144521
vt 0.260729 0.133675
vt 0.255801 0.127671
vt 0.249884 0.113388
vt 0.252139 0.120820
vt 0.249122 0.105656
vt 0.249884 0.097924
vt 0.255801 0.083642
vt 0.252139 0.090493
vt 0.260729 0.077637
vt 0.266734 0.072709
vt 0.281016 0.066792
vt 0.273585 0.069047
vt 0.288748 0.066031
vt 0.296480 0.066792
vt 0.310762 0.072709
vt 0.303911 0.069047
vt 0.316767 0.077637
vt 0.321695 0.083642
vt 0.327612 0.097924
vt 0.325357 0.090493
vt 0.328374 0.105656
vt 0.327612 0.113385
vt 0.321695 0.127671
vt 0.325357 0.120820
vt 0.316767 0.133675
vt 0.310762 0.138603
vt 0.303911 0.142265
vt 0.288748 0.145282
vt 0.136286 0.335680
vt 0.133044 0.341749
vt 0.128679 0.347068
vt 0.138958 0.322250
vt 0.123360 0.351433
vt 0.117291 0.354674
vt 0.103861 0.357382
vt 0.110703 0.356656
vt 0.097016 0.356673
vt 0.090442 0.354642
vt 0.079043 0.347068
vt 0.084350 0.351445
vt 0.074692 0.341737
vt 0.071384 0.335703
vt 0.068743 0.322247
vt 0.069490 0.329086
vt 0.069438 0.315402
vt 0.071433 0.308816
vt 0.079043 0.297431
vt 0.074678 0.302750
vt 0.084362 0.293066
vt 0.090422 0.289807
vt 0.103861 0.287097
vt 0.097025 0.287879
vt 0.110703 0.287844
vt 0.117297 0.289804
vt 0.128717 0.297393
vt 0.123331 0.293113
vt 0.133026 0.302759
vt 0.136286 0.308816
vt 0.138284 0.315402
vt 0.138284 0.329098
vt 0.404871 0.101933
vt 0.403739 0.110879
vt 0.399269 0.109732
vt 0.399264 0.101933
vt 0.400422 0.119265
vt 0.395112 0.116344
vt 0.395120 0.126559
vt 0.392010 0.123635
vt 0.388173 0.132307
vt 0.384187 0.126028
vt 0.380015 0.136147
vt 0.378530 0.131575
vt 0.371157 0.137836
vt 0.370728 0.131023
vt 0.362159 0.137270
vt 0.363010 0.132803
vt 0.353580 0.134484
vt 0.355809 0.129748
vt 0.345968 0.129652
vt 0.349633 0.125223
vt 0.339794 0.123078
vt 0.343931 0.120073
vt 0.335453 0.115177
vt 0.342286 0.112469
vt 0.333209 0.106441
vt 0.337673 0.105878
vt 0.333209 0.097425
vt 0.339870 0.098266
vt 0.335453 0.088690
vt 0.339044 0.090114
vt 0.339794 0.080788
vt 0.344731 0.084374
vt 0.345968 0.074215
vt 0.349452 0.078425
vt 0.353580 0.069383
vt 0.356127 0.074795
vt 0.362159 0.066597
vt 0.363407 0.073144
vt 0.371157 0.066031
vt 0.370883 0.070410
vt 0.380015 0.067723
vt 0.378034 0.073815
vt 0.388173 0.071560
vt 0.386151 0.074749
vt 0.395120 0.077308
vt 0.390058 0.082064
vt 0.400422 0.084605
vt 0.395905 0.087088
vt 0.403739 0.092988
vt 0.397352 0.094627
vt 0.376962 0.333209
vt 0.387192 0.334501
vt 0.385952 0.339327
vt 0.376962 0.339257
vt 0.396773 0.338294
vt 0.393625 0.344025
vt 0.405115 0.344354
vt 0.401961 0.347710
vt 0.411686 0.352297
vt 0.404908 0.356597
vt 0.416074 0.361625
vt 0.411141 0.363226
vt 0.418006 0.371749
vt 0.410653 0.372213
vt 0.417358 0.382037
vt 0.412538 0.381118
vt 0.414172 0.391841
vt 0.409066 0.389436
vt 0.408649 0.400544
vt 0.403869 0.396591
vt 0.401136 0.407602
vt 0.397894 0.403138
vt 0.392102 0.412568
vt 0.389181 0.405192
vt 0.382118 0.415130
vt 0.381508 0.410313
vt 0.371809 0.415130
vt 0.372717 0.407944
vt 0.361825 0.412568
vt 0.363360 0.408691
vt 0.352792 0.407602
vt 0.356660 0.402274
vt 0.345275 0.400544
vt 0.349821 0.396786
vt 0.339752 0.391841
vt 0.345593 0.389092
vt 0.336569 0.382037
vt 0.343633 0.380689
vt 0.335921 0.371749
vt 0.340645 0.372047
vt 0.337853 0.361625
vt 0.344426 0.363760
vt 0.342241 0.352297
vt 0.345681 0.354479
vt 0.348812 0.344354
vt 0.353941 0.349816
vt 0.357151 0.338294
vt 0.359832 0.343170
vt 0.366735 0.334501
vt 0.368506 0.341393
# 958 texture coordinates

vn -0.011615 0.195014 0.980732
vn -0.107596 0.193953 0.975093
vn -0.107585 0.000000 0.994196
vn -0.011608 0.000000 0.999933
vn -0.011612 0.382648 0.923821
vn -0.107639 0.380434 0.918523
vn -0.011598 0.555633 0.831347
vn -0.107616 0.552374 0.826621
vn -0.011592 0.707059 0.707059
vn -0.107561 0.703004 0.703005
vn -0.011598 0.831347 0.555633
vn -0.107616 0.826621 0.552374
vn -0.011606 0.923851 0.382575
vn -0.107636 0.918538 0.380398
vn -0.011601 0.980731 0.195017
vn -0.107589 0.975093 0.193954
vn -0.011595 0.999933 0.000000
vn -0.107579 0.994197 0.000000
vn -0.011595 0.980716 -0.195094
vn -0.107586 0.975086 -0.193993
vn -0.011593 0.923849 -0.382581
vn -0.107629 0.918537 -0.380401
vn -0.011592 0.831387 -0.555573
vn -0.107614 0.826641 -0.552344
vn -0.011592 0.707059 -0.707059
vn -0.107561 0.703004 -0.703005
vn -0.011592 0.555573 -0.831387
vn -0.107614 0.552344 -0.826641
vn -0.011593 0.382581 -0.923849
vn -0.107629 0.380401 -0.918537
vn -0.011595 0.195094 -0.980716
vn -0.107586 0.193993 -0.975086
vn -0.011602 0.000081 -0.999933
vn -0.107582 0.000041 -0.994196
vn -0.011608 -0.195091 -0.980716
vn -0.107593 -0.193992 -0.975085
vn -0.011600 -0.382654 -0.923819
vn -0.107632 -0.380437 -0.918522
vn -0.011592 -0.555573 -0.831387
vn -0.107614 -0.552344 -0.826641
vn -0.011592 -0.707059 -0.707059
vn -0.107561 -0.703004 -0.703005
vn -0.011598 -0.831347 -0.555633
vn -0.107616 -0.826621 -0.552374
vn -0.011606 -0.923851 -0.382575
vn -0.107636 -0.918538 -0.380398
vn -0.011608 -0.980715 -0.195097
vn -0.107591 -0.975085 -0.193995
vn -0.011609 -0.999933 0.000000
vn -0.107587 -0.994196 0.000000
vn -0.011602 -0.980700 0.195174
vn -0.107589 -0.975077 0.194033
vn -0.011593 -0.923849 0.382581
vn -0.107629 -0.918537 0.380401
vn -0.011592 -0.831387 0.555573
vn -0.107614 -0.826641 0.552344
vn -0.011592 -0.707059 0.707059
vn -0.107561 -0.703005 0.703004
vn -0.011598 -0.555633 0.831347
vn -0.107616 -0.552374 0.826621
vn -0.011612 -0.382648 0.923821
vn -0.107639 -0.380434 0.918523
vn -0.011615 -0.195014 0.980732
vn -0.107596 -0.193953 0.975093
vn -0.112513 0.193819 0.974564
vn -0.112498 0.000000 0.993652
vn -0.114684 0.000000 0.993402
vn -0.114690 0.193825 0.974309
vn -0.112531 0.380229 0.918021
vn -0.114729 0.380127 0.917791
vn -0.112533 0.552060 0.826176
vn -0.114718 0.551869 0.826002
vn -0.112519 0.702616 0.702616
vn -0.114671 0.702442 0.702442
vn -0.112533 0.826176 0.552060
vn -0.114719 0.826003 0.551869
vn -0.112531 0.918021 0.380229
vn -0.114729 0.917791 0.380127
vn -0.112513 0.974564 0.193819
vn -0.114690 0.974309 0.193825
vn -0.112498 0.993652 0.000000
vn -0.114684 0.993402 0.000000
vn -0.112513 0.974564 -0.193819
vn -0.114690 0.974309 -0.193825
vn -0.112531 0.918021 -0.380229
vn -0.114729 0.917791 -0.380127
vn -0.112533 0.826176 -0.552060
vn -0.114719 0.826002 -0.551869
vn -0.112519 0.702617 -0.702616
vn -0.114671 0.702442 -0.702442
vn -0.112533 0.552060 -0.826176
vn -0.114719 0.551869 -0.826003
vn -0.112531 0.380229 -0.918021
vn -0.114729 0.380127 -0.917791
vn -0.112513 0.193819 -0.974564
vn -0.114690 0.193825 -0.974309
vn -0.112498 0.000000 -0.993652
vn -0.114684 0.000000 -0.993402
vn -0.112513 -0.193819 -0.974564
vn -0.114690 -0.193825 -0.974309
vn -0.112531 -0.380229 -0.918021
vn -0.114729 -0.380127 -0.917791
vn -0.112533 -0.552060 -0.826176
vn -0.114719 -0.551869 -0.826003
vn -0.112519 -0.702616 -0.702616
vn -0.114671 -0.702442 -0.702442
vn -0.112533 -0.826176 -0.552060
vn -0.114719 -0.826003 -0.551869
vn -0.112531 -0.918021 -0.380229
vn -0.114729 -0.917791 -0.380127
vn -0.112513 -0.974564 -0.193819
vn -0.114690 -0.974309 -0.193825
vn -0.112498 -0.993652 0.000000
vn -0.114684 -0.993402 0.000000
vn -0.112513 -0.974564 0.193819
vn -0.114690 -0.974309 0.193825
vn -0.112531 -0.918021 0.380229
vn -0.114729 -0.917791 0.380127
vn -0.112533 -0.826176 0.552060
vn -0.114719 -0.826003 0.551869
vn -0.112519 -0.702616 0.702616
vn -0.114671 -0.702442 0.702443
vn -0.112533 -0.552060 0.826176
vn -0.114719 -0.551869 0.826002
vn -0.112531 -0.380229 0.918021
vn -0.114729 -0.380127 0.917791
vn -0.112513 -0.193819 0.974564
vn -0.114690 -0.193825 0.974309
vn 0.402719 0.174456 0.898544
vn 0.410164 0.000168 0.912012
vn 0.255321 0.000030 0.966856
vn 0.252325 0.187096 0.949383
vn 0.382889 0.345568 0.856726
vn 0.244051 0.368218 0.897137
vn 0.350106 0.510291 0.785512
vn 0.229933 0.537692 0.811183
vn 0.303855 0.663008 0.684173
vn 0.209472 0.689097 0.693734
vn 0.244269 0.796246 0.553467
vn 0.182791 0.815980 0.548420
vn 0.172711 0.901527 0.396763
vn 0.150854 0.912455 0.380354
vn 0.092221 0.970955 0.220777
vn 0.115377 0.973773 0.196096
vn 0.000240 0.999772 0.021345
vn 0.075383 0.997152 -0.002155
vn -0.094423 0.978917 -0.181126
vn 0.033470 0.978958 -0.201300
vn -0.180141 0.914544 -0.362157
vn -0.005447 0.921714 -0.387831
vn -0.257019 0.812528 -0.523202
vn -0.040528 0.828205 -0.558958
vn -0.321989 0.680306 -0.658412
vn -0.070430 0.702720 -0.707972
vn -0.372851 0.526584 -0.763997
vn -0.094271 0.550720 -0.829349
vn -0.409096 0.358069 -0.839301
vn -0.111484 0.378574 -0.918833
vn -0.430566 0.181037 -0.884216
vn -0.121853 0.192778 -0.973647
vn -0.437340 0.000066 -0.899296
vn -0.125316 -0.000020 -0.992117
vn -0.429505 -0.181220 -0.884695
vn -0.121855 -0.192749 -0.973652
vn -0.111472 -0.378584 -0.918830
vn -0.407041 -0.358113 -0.840281
vn -0.094261 -0.550778 -0.829312
vn -0.369781 -0.526410 -0.765607
vn -0.070451 -0.702679 -0.708010
vn -0.317913 -0.680020 -0.660685
vn -0.040533 -0.828176 -0.559001
vn -0.252136 -0.811930 -0.526495
vn -0.005426 -0.921724 -0.387809
vn -0.174138 -0.914276 -0.365752
vn 0.033485 -0.978964 -0.201268
vn -0.087747 -0.978731 -0.185433
vn 0.075014 -0.997177 -0.003232
vn 0.006144 -0.999888 0.013632
vn 0.115192 -0.974175 0.194201
vn 0.098127 -0.972426 0.211565
vn 0.151577 -0.912939 0.378903
vn 0.179826 -0.903340 0.389409
vn 0.184103 -0.816558 0.547119
vn 0.251570 -0.798465 0.546961
vn 0.211186 -0.689597 0.692717
vn 0.311057 -0.664939 0.679043
vn 0.231711 -0.537997 0.810475
vn 0.356559 -0.511170 0.782030
vn 0.245506 -0.368408 0.896662
vn 0.387614 -0.346096 0.854385
vn 0.253159 -0.187091 0.949162
vn 0.405271 -0.174327 0.897421
vn 0.050844 0.194857 0.979513
vn 0.050846 0.000000 0.998707
vn -0.099624 0.000000 0.995025
vn -0.099641 0.194100 0.975908
vn 0.050845 0.382185 0.922686
vn -0.099663 0.380767 0.919284
vn 0.050853 0.554859 0.830389
vn -0.099661 0.552845 0.827303
vn 0.050858 0.706192 0.706192
vn -0.099644 0.703588 0.703588
vn 0.050853 0.830389 0.554859
vn -0.099661 0.827303 0.552845
vn 0.050845 0.922686 0.382186
vn -0.099663 0.919284 0.380767
vn 0.050843 0.979513 0.194857
vn -0.099641 0.975908 0.194101
vn 0.050846 0.998707 0.000000
vn -0.099624 0.995025 0.000000
vn 0.050843 0.979513 -0.194858
vn -0.099641 0.975908 -0.194101
vn 0.050845 0.922686 -0.382186
vn -0.099663 0.919284 -0.380767
vn 0.050853 0.830389 -0.554859
vn -0.099661 0.827303 -0.552845
vn 0.050858 0.706192 -0.706192
vn -0.099644 0.703588 -0.703587
vn 0.050853 0.554859 -0.830389
vn -0.099661 0.552845 -0.827303
vn 0.050845 0.382185 -0.922686
vn -0.099663 0.380767 -0.919285
vn 0.050844 0.194857 -0.979513
vn -0.099641 0.194101 -0.975908
vn 0.050846 0.000000 -0.998707
vn -0.099624 0.000000 -0.995025
vn 0.050844 -0.194857 -0.979513
vn -0.099641 -0.194101 -0.975908
vn 0.050845 -0.382185 -0.922686
vn -0.099663 -0.380767 -0.919285
vn 0.050853 -0.554859 -0.830389
vn -0.099661 -0.552845 -0.827303
vn 0.050858 -0.706192 -0.706192
vn -0.099644 -0.703588 -0.703588
vn 0.050853 -0.830389 -0.554859
vn -0.099661 -0.827303 -0.552845
vn 0.050845 -0.922686 -0.382185
vn -0.099663 -0.919284 -0.380767
vn 0.050844 -0.979513 -0.194857
vn -0.099641 -0.975908 -0.194100
vn 0.050846 -0.998707 0.000000
vn -0.099624 -0.995025 0.000000
vn 0.050844 -0.979513 0.194857
vn -0.099641 -0.975908 0.194100
vn 0.050845 -0.922686 0.382185
vn -0.099663 -0.919285 0.380767
vn 0.050853 -0.830389 0.554859
vn -0.099661 -0.827303 0.552845
vn 0.050858 -0.706192 0.706192
vn -0.099644 -0.703588 0.703588
vn 0.050853 -0.554859 0.830389
vn -0.099661 -0.552845 0.827303
vn 0.050845 -0.382185 0.922686
vn -0.099663 -0.380767 0.919284
vn 0.050844 -0.194857 0.979513
vn -0.099641 -0.194100 0.975908
vn 0.547089 0.182086 0.817030
vn 0.560121 0.000618 0.828410
vn 0.513226 0.358451 0.779815
vn 0.459037 0.525019 0.716687
vn 0.385455 0.675834 0.628230
vn 0.294115 0.804237 0.516429
vn 0.187379 0.903697 0.384995
vn 0.069894 0.968184 0.240280
vn -0.059820 0.995085 0.078918
vn -0.192027 0.977482 -0.087485
vn -0.313031 0.918912 -0.240027
vn -0.423694 0.822676 -0.379062
vn -0.519610 0.693583 -0.498948
vn -0.595142 0.541464 -0.593820
vn -0.650547 0.369237 -0.663666
vn -0.683320 0.186772 -0.705826
vn -0.693265 0.000181 -0.720683
vn -0.680401 -0.188806 -0.708100
vn -0.645076 -0.370696 -0.668177
vn -0.587569 -0.541550 -0.601238
vn -0.509132 -0.694476 -0.508416
vn -0.412005 -0.822588 -0.391919
vn -0.298412 -0.919972 -0.254170
vn -0.175945 -0.978936 -0.103574
vn -0.044594 -0.997269 0.058875
vn 0.085891 -0.971742 0.219866
vn 0.204467 -0.907348 0.367304
vn 0.309949 -0.808565 0.500154
vn 0.400093 -0.679564 0.614914
vn 0.472114 -0.526087 0.707348
vn 0.522370 -0.359038 0.773448
vn 0.551964 -0.181285 0.813923
vn 0.831502 0.197653 0.519170
vn 0.977152 0.192824 -0.089398
vn 0.996242 0.001650 -0.086599
vn 0.848499 0.001501 0.529195
vn 0.781070 0.385967 0.490876
vn 0.922261 0.376835 -0.086193
vn 0.832908 0.547499 -0.080679
vn 0.699190 0.559145 0.445523
vn 0.711684 0.698294 -0.076752
vn 0.589124 0.710418 0.385017
vn 0.562977 0.822882 -0.076958
vn 0.455379 0.833872 0.311910
vn 0.391680 0.916398 -0.082465
vn 0.302649 0.925190 0.228971
vn 0.208791 0.973568 -0.092582
vn 0.139585 0.980177 0.140604
vn 0.013467 0.994102 -0.107612
vn -0.033421 0.998335 0.047006
vn -0.187287 0.974194 -0.125974
vn -0.209313 0.976655 -0.048299
vn -0.371684 0.917015 -0.144686
vn -0.371610 0.918244 -0.136875
vn -0.543462 0.823330 -0.163635
vn -0.521989 0.824413 -0.218795
vn -0.695578 0.695332 -0.180789
vn -0.654939 0.697507 -0.290757
vn -0.814246 0.547120 -0.194071
vn -0.760247 0.548700 -0.347782
vn -0.905571 0.372044 -0.203773
vn -0.840769 0.374653 -0.390823
vn -0.959963 0.187544 -0.208084
vn -0.889261 0.189372 -0.416358
vn -0.978216 0.001086 -0.207589
vn -0.905424 0.000285 -0.424508
vn -0.960293 -0.192826 -0.201631
vn -0.888848 -0.194403 -0.414917
vn -0.906752 -0.376093 -0.190668
vn -0.840123 -0.379181 -0.387833
vn -0.818636 -0.547004 -0.174990
vn -0.760506 -0.550718 -0.344005
vn -0.698648 -0.698401 -0.155329
vn -0.652761 -0.701959 -0.284879
vn -0.551169 -0.823747 -0.132865
vn -0.521021 -0.826630 -0.212651
vn -0.377025 -0.919847 -0.108323
vn -0.367330 -0.921165 -0.128543
vn -0.204359 -0.978107 -0.039304
vn -0.193503 -0.977420 -0.084889
vn -0.031361 -0.998015 0.054620
vn 0.001848 -0.997969 -0.063669
vn 0.142964 -0.978520 0.148527
vn 0.200242 -0.978655 -0.046235
vn 0.307125 -0.921621 0.237252
vn 0.387649 -0.921129 -0.035347
vn 0.456553 -0.830908 0.318044
vn 0.557622 -0.829491 -0.031667
vn 0.589447 -0.707475 0.389913
vn 0.709156 -0.704139 -0.035869
vn 0.700653 -0.553811 0.449865
vn 0.835374 -0.547740 -0.046159
vn 0.780900 -0.383002 0.493461
vn 0.923995 -0.377417 -0.061557
vn 0.831422 -0.194518 0.520482
vn 0.978717 -0.190386 -0.076589
vn 0.980686 0.192591 -0.034116
vn 0.999447 0.000725 -0.033252
vn 0.969241 0.000845 -0.246110
vn 0.950604 0.185361 -0.248984
vn 0.925408 0.377523 -0.033117
vn 0.897107 0.363276 -0.251456
vn 0.835081 0.549280 -0.030511
vn 0.810119 0.528751 -0.253238
vn 0.712297 0.701369 -0.026713
vn 0.691943 0.675800 -0.253987
vn 0.561152 0.827414 -0.022252
vn 0.546279 0.798363 -0.253368
vn 0.386188 0.922251 -0.017645
vn 0.377258 0.891422 -0.251085
vn 0.200212 0.979660 -0.013477
vn 0.196642 0.948846 -0.247028
vn 0.001789 0.999949 -0.009973
vn 0.003314 0.970240 -0.242122
vn -0.201945 0.979371 -0.007093
vn -0.195786 0.951660 -0.236668
vn -0.385789 0.922572 -0.005197
vn -0.376434 0.896917 -0.232030
vn -0.558305 0.829626 -0.004081
vn -0.545411 0.806427 -0.228479
vn -0.713078 0.701077 -0.003326
vn -0.696422 0.681475 -0.224918
vn -0.832577 0.553902 -0.002892
vn -0.813243 0.537957 -0.221899
vn -0.926452 0.376407 -0.002343
vn -0.904547 0.365639 -0.219325
vn -0.981761 0.190115 -0.001539
vn -0.958802 0.184762 -0.215783
vn -0.999995 0.003043 -0.000484
vn -0.977005 0.002666 -0.213201
vn -0.980850 -0.194760 0.001045
vn -0.959203 -0.189299 -0.209989
vn -0.925107 -0.379696 0.002878
vn -0.905833 -0.369660 -0.206925
vn -0.834051 -0.551666 0.004829
vn -0.817882 -0.537917 -0.204242
vn -0.710907 -0.703255 0.006616
vn -0.698151 -0.686758 -0.202357
vn -0.560968 -0.827800 0.007885
vn -0.551451 -0.809461 -0.201681
vn -0.383417 -0.923538 0.008332
vn -0.377257 -0.903649 -0.202722
vn -0.200084 -0.979748 0.007724
vn -0.196341 -0.958831 -0.205168
vn -0.003482 -0.999978 0.005589
vn -0.002588 -0.977555 -0.210665
vn 0.198543 -0.980090 0.002209
vn 0.195648 -0.956511 -0.216353
vn 0.388538 -0.921430 -0.002319
vn 0.381287 -0.897291 -0.222462
vn 0.558804 -0.829263 -0.007837
vn 0.547072 -0.805602 -0.227415
vn 0.693816 -0.681506 -0.232740
vn 0.710693 -0.703360 -0.014175
vn 0.837422 -0.546172 -0.020528
vn 0.815548 -0.528202 -0.236398
vn 0.925494 -0.377867 -0.026031
vn 0.899783 -0.364513 -0.239835
vn 0.981061 -0.191287 -0.030490
vn 0.952380 -0.184127 -0.243044
vn 0.876220 0.165595 -0.452567
vn 0.891709 0.001009 -0.452608
vn 0.834681 0.327415 -0.442839
vn 0.764526 0.483210 -0.426624
vn 0.663860 0.627214 -0.407298
vn 0.533504 0.751934 -0.387259
vn 0.376362 0.850371 -0.367723
vn 0.203282 0.914779 -0.349080
vn 0.013752 0.943026 -0.332435
vn -0.184064 0.930033 -0.318054
vn -0.365474 0.878654 -0.307240
vn -0.534476 0.790281 -0.299653
vn -0.684193 0.667664 -0.293435
vn -0.800003 0.525989 -0.288670
vn -0.889439 0.357389 -0.284907
vn -0.942769 0.180459 -0.280394
vn -0.960841 0.001999 -0.277094
vn -0.944001 -0.184990 -0.273206
vn -0.892437 -0.361779 -0.269577
vn -0.806706 -0.527442 -0.266516
vn -0.689037 -0.674667 -0.264675
vn -0.543516 -0.796521 -0.264849
vn -0.370033 -0.889517 -0.268020
vn -0.187929 -0.943014 -0.274603
vn 0.005936 -0.957840 -0.287242
vn 0.201473 -0.931368 -0.303253
vn 0.381509 -0.866039 -0.323152
vn 0.538658 -0.768580 -0.345156
vn 0.672087 -0.640798 -0.371049
vn 0.776914 -0.488757 -0.396890
vn 0.843893 -0.331338 -0.421972
vn 0.881791 -0.164918 -0.441868
vn 1.000000 0.000000 0.000000
vn 1.000000 0.000000 0.000000
vn 1.000000 0.000000 0.000000
vn 1.000000 0.000000 0.000000
vn 1.000000 0.000000 0.000000
vn -0.000000 0.000000 1.000000
vn 0.000000 0.000000 1.000000
vn 0.000000 0.000000 1.000000
vn 0.000000 0.000000 1.000000
vn 0.000000 0.000000 -1.000000
vn 0.000000 -0.195121 -0.980779
vn 0.000000 -0.382691 -0.923877
vn 0.000000 -0.555571 -0.831469
vn 0.000000 -0.707107 -0.707107
vn 0.000000 -0.831469 -0.555571
vn 0.000000 -0.923877 -0.382691
vn 0.000000 -0.980779 -0.195121
vn 0.000000 -1.000000 -0.000018
vn 0.000000 -1.000000 -0.000018
vn 0.000000 -0.980772 0.195156
vn 0.000000 -0.980772 0.195156
vn 0.000000 -0.923856 0.382741
vn 0.000000 -0.831469 0.555571
vn 0.000000 -0.707107 0.707107
vn 0.000000 -0.555571 0.831469
vn -0.000001 -0.382716 0.923866
vn -0.000002 -0.195138 0.980776
vn -0.000002 0.195138 0.980776
vn -0.000002 0.195138 0.980776
vn -0.000001 0.382716 0.923866
vn 0.000000 0.555571 0.831469
vn 0.000000 0.707107 0.707107
vn 0.000000 0.831469 0.555571
vn -0.000001 0.923866 0.382716
vn -0.000002 0.980776 0.195139
vn -0.000002 0.980776 0.195139
vn -0.000001 1.000000 0.000000
vn -0.000002 0.980776 -0.195139
vn -0.000001 0.923866 -0.382716
vn 0.000000 0.831469 -0.555571
vn 0.000000 0.831469 -0.555571
vn 0.000000 0.707107 -0.707107
vn 0.000000 0.555571 -0.831469
vn 0.000000 0.382691 -0.923877
vn 0.000000 0.195121 -0.980779
vn -0.980767 -0.195184 0.000000
vn -1.000000 0.000000 0.000000
vn -0.923885 -0.382669 0.000000
vn -0.831560 -0.555436 0.000000
vn -0.707107 -0.707106 0.000000
vn -0.555435 -0.831560 0.000000
vn -0.381431 -0.924397 0.000000
vn -0.197637 -0.980275 0.000000
vn -0.001287 -0.999999 0.000000
vn 0.200058 -0.979784 0.000000
vn 0.381573 -0.924339 0.000000
vn 0.553430 -0.832896 0.000000
vn 0.708909 -0.705300 0.000000
vn 0.829251 -0.558876 0.000000
vn 0.924854 -0.380323 0.000000
vn 0.981290 -0.192536 0.000000
vn 0.999993 -0.003841 0.000000
vn 0.999993 -0.003841 0.000000
vn 0.980524 0.196399 0.000000
vn 0.923875 0.382694 0.000000
vn 0.831401 0.555673 0.000000
vn 0.707107 0.707106 0.000000
vn 0.556617 0.830769 0.000000
vn 0.379083 0.925363 0.000000
vn 0.197724 0.980258 0.000000
vn 0.002576 0.999997 0.000000
vn -0.197570 0.980289 0.000000
vn -0.385085 0.922881 0.000000
vn -0.553482 0.832861 0.000000
vn -0.705278 0.708931 0.000000
vn -0.833632 0.552321 0.000000
vn -0.923326 0.384017 0.000000
vn -0.980779 0.195123 0.000000
vn 1.000000 0.000000 0.000000
vn 1.000000 0.000000 0.000000
vn 1.000000 0.000000 0.000000
vn 1.000000 0.000000 0.000000
vn 1.000000 0.000000 0.000000
vn 1.000000 0.000000 0.000000
vn 1.000000 0.000000 0.000000
vn 1.000000 0.000000 0.000000
vn 1.000000 0.000000 0.000000
vn 1.000000 0.000000 0.000000
vn 1.000000 0.000000 0.000000
vn 1.000000 0.000000 0.000000
vn 0.000000 0.000000 1.000000
vn 0.000000 0.000000 1.000000
vn 0.000000 0.000000 1.000000
vn 0.000000 0.000000 1.000000
vn 0.000000 0.000000 1.000000
vn 0.000000 0.000000 1.000000
vn 0.000000 0.000000 1.000000
vn 0.000000 0.000000 1.000000
vn 0.000000 0.000000 1.000000
vn 0.000000 0.000000 1.000000
vn 0.000000 0.000000 1.000000
vn 0.000000 0.000000 1.000000
# 550 normals

usemtl wire_115115115
f 1/1/1 2/2/2 3/3/3 4/4/4
f 5/5/5 6/6/6 2/2/2 1/1/1
f 7/7/7 8/8/8 6/6/6 5/5/5
f 9/9/9 10/10/10 8/8/8 7/7/7
f 11/11/11 12/12/12 10/13/10 9/14/9
f 13/15/13 14/16/14 12/12/12 11/11/11
f 15/17/15 16/18/16 14/16/14 13/15/13
f 17/19/17 18/20/18 16/18/16 15/17/15
f 19/21/19 20/22/20 18/20/18 17/19/17
f 21/23/21 22/24/22 20/22/20 19/21/19
f 23/25/23 24/26/24 22/24/22 21/23/21
f 25/27/25 26/28/26 24/26/24 23/25/23
f 27/29/27 28/30/28 26/31/26 25/32/25
f 29/33/29 30/34/30 28/30/28 27/29/27
f 31/35/31 32/36/32 30/34/30 29/33/29
f 33/37/33 34/38/34 32/36/32 31/35/31
f 35/39/35 36/40/36 34/38/34 33/37/33
f 37/41/37 38/42/38 36/40/36 35/39/35
f 39/43/39 40/44/40 38/42/38 37/41/37
f 41/45/41 42/46/42 40/44/40 39/43/39
f 43/47/43 44/48/44 42/49/42 41/50/41
f 45/51/45 46/52/46 44/48/44 43/47/43
f 47/53/47 48/54/48 46/52/46 45/51/45
f 49/55/49 50/56/50 48/54/48 47/53/47
f 51/57/51 52/58/52 50/56/50 49/55/49
f 53/59/53 54/60/54 52/58/52 51/57/51
f 55/61/55 56/62/56 54/60/54 53/59/53
f 57/63/57 58/64/58 56/62/56 55/61/55
f 59/65/59 60/66/60 58/67/58 57/68/57
f 61/69/61 62/70/62 60/66/60 59/65/59
f 63/71/63 64/72/64 62/70/62 61/69/61
f 4/4/4 3/3/3 64/72/64 63/71/63
f 65/73/65 66/74/66 67/75/67 68/76/68
f 69/77/69 65/73/65 68/76/68 70/78/70
f 71/79/71 69/77/69 70/78/70 72/80/72
f 73/81/73 71/79/71 72/80/72 74/82/74
f 75/83/75 73/84/73 74/85/74 76/86/76
f 77/87/77 75/83/75 76/86/76 78/88/78
f 79/89/79 77/87/77 78/88/78 80/90/80
f 81/91/81 79/89/79 80/90/80 82/92/82
f 83/93/83 81/91/81 82/92/82 84/94/84
f 85/95/85 83/93/83 84/94/84 86/96/86
f 87/97/87 85/95/85 86/96/86 88/98/88
f 89/99/89 87/97/87 88/98/88 90/100/90
f 91/101/91 89/102/89 90/103/90 92/104/92
f 93/105/93 91/101/91 92/104/92 94/106/94
f 95/107/95 93/105/93 94/106/94 96/108/96
f 97/109/97 95/107/95 96/108/96 98/110/98
f 99/111/99 97/109/97 98/110/98 100/112/100
f 101/113/101 99/111/99 100/112/100 102/114/102
f 103/115/103 101/113/101 102/114/102 104/116/104
f 105/117/105 103/115/103 104/116/104 106/118/106
f 107/119/107 105/120/105 106/121/106 108/122/108
f 109/123/109 107/119/107 108/122/108 110/124/110
f 111/125/111 109/123/109 110/124/110 112/126/112
f 113/127/113 111/125/111 112/126/112 114/128/114
f 115/129/115 113/127/113 114/128/114 116/130/116
f 117/131/117 115/129/115 116/130/116 118/132/118
f 119/133/119 117/131/117 118/132/118 120/134/120
f 121/135/121 119/133/119 120/134/120 122/136/122
f 123/137/123 121/138/121 122/139/122 124/140/124
f 125/141/125 123/137/123 124/140/124 126/142/126
f 127/143/127 125/141/125 126/142/126 128/144/128
f 66/74/66 127/143/127 128/144/128 67/75/67
f 129/145/129 130/146/130 131/147/131 132/148/132
f 133/149/133 129/145/129 132/148/132 134/150/134
f 135/151/135 133/149/133 134/150/134 136/152/136
f 137/153/137 135/151/135 136/152/136 138/154/138
f 139/155/139 137/156/137 138/157/138 140/158/140
f 141/159/141 139/155/139 140/158/140 142/160/142
f 143/161/143 141/159/141 142/160/142 144/162/144
f 145/163/145 143/161/143 144/162/144 146/164/146
f 147/165/147 145/163/145 146/164/146 148/166/148
f 149/167/149 147/165/147 148/166/148 150/168/150
f 151/169/151 149/167/149 150/168/150 152/170/152
f 153/171/153 151/169/151 152/170/152 154/172/154
f 155/173/155 153/174/153 154/175/154 156/176/156
f 157/177/157 155/173/155 156/176/156 158/178/158
f 159/179/159 157/177/157 158/178/158 160/180/160
f 161/181/161 159/179/159 160/180/160 162/182/162
f 163/183/163 161/181/161 162/182/162 164/184/164
f 165/185/165 166/186/166 163/183/163 164/184/164
f 167/187/167 168/188/168 166/186/166 165/185/165
f 169/189/169 170/190/170 168/188/168 167/187/167
f 171/191/171 172/192/172 170/193/170 169/194/169
f 173/195/173 174/196/174 172/192/172 171/191/171
f 175/197/175 176/198/176 174/196/174 173/195/173
f 177/199/177 178/200/178 176/198/176 175/197/175
f 179/201/179 180/202/180 178/200/178 177/199/177
f 181/203/181 182/204/182 180/202/180 179/201/179
f 183/205/183 184/206/184 182/204/182 181/203/181
f 185/207/185 186/208/186 184/206/184 183/205/183
f 187/209/187 188/210/188 186/211/186 185/212/185
f 189/213/189 190/214/190 188/210/188 187/209/187
f 191/215/191 192/216/192 190/214/190 189/213/189
f 131/147/131 130/146/130 192/216/192 191/215/191
f 193/217/193 194/218/194 195/219/195 196/220/196
f 197/221/197 193/217/193 196/220/196 198/222/198
f 199/223/199 197/221/197 198/222/198 200/224/200
f 201/225/201 199/223/199 200/224/200 202/226/202
f 203/227/203 201/228/201 202/229/202 204/230/204
f 205/231/205 203/227/203 204/230/204 206/232/206
f 207/233/207 205/231/205 206/232/206 208/234/208
f 209/235/209 207/233/207 208/234/208 210/236/210
f 211/237/211 209/235/209 210/236/210 212/238/212
f 213/239/213 211/237/211 212/238/212 214/240/214
f 215/241/215 213/239/213 214/240/214 216/242/216
f 217/243/217 215/241/215 216/242/216 218/244/218
f 219/245/219 217/246/217 218/247/218 220/248/220
f 221/249/221 219/245/219 220/248/220 222/250/222
f 223/251/223 221/249/221 222/250/222 224/252/224
f 225/253/225 223/251/223 224/252/224 226/254/226
f 227/255/227 225/253/225 226/254/226 228/256/228
f 229/257/229 227/255/227 228/256/228 230/258/230
f 231/259/231 229/257/229 230/258/230 232/260/232
f 233/261/233 231/259/231 232/260/232 234/262/234
f 235/263/235 233/264/233 234/265/234 236/266/236
f 237/267/237 235/263/235 236/266/236 238/268/238
f 239/269/239 237/267/237 238/268/238 240/270/240
f 241/271/241 239/269/239 240/270/240 242/272/242
f 243/273/243 241/271/241 242/272/242 244/274/244
f 245/275/245 243/273/243 244/274/244 246/276/246
f 247/277/247 245/275/245 246/276/246 248/278/248
f 249/279/249 247/277/247 248/278/248 250/280/250
f 251/281/251 249/282/249 250/283/250 252/284/252
f 253/285/253 251/281/251 252/284/252 254/286/254
f 255/287/255 253/285/253 254/286/254 256/288/256
f 194/218/194 255/287/255 256/288/256 195/219/195
f 2/2/2 68/76/68 67/75/67 3/3/3
f 6/6/6 70/78/70 68/76/68 2/2/2
f 8/8/8 72/80/72 70/78/70 6/6/6
f 10/10/10 74/82/74 72/80/72 8/8/8
f 12/12/12 76/86/76 74/85/74 10/13/10
f 14/16/14 78/88/78 76/86/76 12/12/12
f 16/18/16 80/90/80 78/88/78 14/16/14
f 18/20/18 82/92/82 80/90/80 16/18/16
f 20/22/20 84/94/84 82/92/82 18/20/18
f 22/24/22 86/96/86 84/94/84 20/22/20
f 24/26/24 88/98/88 86/96/86 22/24/22
f 26/28/26 90/100/90 88/98/88 24/26/24
f 28/30/28 92/104/92 90/103/90 26/31/26
f 30/34/30 94/106/94 92/104/92 28/30/28
f 32/36/32 96/108/96 94/106/94 30/34/30
f 34/38/34 98/110/98 96/108/96 32/36/32
f 36/40/36 100/112/100 98/110/98 34/38/34
f 38/42/38 102/114/102 100/112/100 36/40/36
f 40/44/40 104/116/104 102/114/102 38/42/38
f 42/46/42 106/118/106 104/116/104 40/44/40
f 44/48/44 108/122/108 106/121/106 42/49/42
f 46/52/46 110/124/110 108/122/108 44/48/44
f 48/54/48 112/126/112 110/124/110 46/52/46
f 50/56/50 114/128/114 112/126/112 48/54/48
f 52/58/52 116/130/116 114/128/114 50/56/50
f 54/60/54 118/132/118 116/130/116 52/58/52
f 56/62/56 120/134/120 118/132/118 54/60/54
f 58/64/58 122/136/122 120/134/120 56/62/56
f 60/66/60 124/140/124 122/139/122 58/67/58
f 62/70/62 126/142/126 124/140/124 60/66/60
f 64/72/64 128/144/128 126/142/126 62/70/62
f 3/3/3 67/75/67 128/144/128 64/72/64
f 195/219/195 66/74/66 65/73/65 196/220/196
f 256/288/256 127/143/127 66/74/66 195/219/195
f 254/286/254 125/141/125 127/143/127 256/288/256
f 252/284/252 123/137/123 125/141/125 254/286/254
f 250/283/250 121/138/121 123/137/123 252/284/252
f 248/278/248 119/133/119 121/135/121 250/280/250
f 246/276/246 117/131/117 119/133/119 248/278/248
f 244/274/244 115/129/115 117/131/117 246/276/246
f 242/272/242 113/127/113 115/129/115 244/274/244
f 240/270/240 111/125/111 113/127/113 242/272/242
f 238/268/238 109/123/109 111/125/111 240/270/240
f 236/266/236 107/119/107 109/123/109 238/268/238
f 234/265/234 105/120/105 107/119/107 236/266/236
f 232/260/232 103/115/103 105/117/105 234/262/234
f 230/258/230 101/113/101 103/115/103 232/260/232
f 228/256/228 99/111/99 101/113/101 230/258/230
f 226/254/226 97/109/97 99/111/99 228/256/228
f 224/252/224 95/107/95 97/109/97 226/254/226
f 222/250/222 93/105/93 95/107/95 224/252/224
f 220/248/220 91/101/91 93/105/93 222/250/222
f 218/247/218 89/102/89 91/101/91 220/248/220
f 216/242/216 87/97/87 89/99/89 218/244/218
f 214/240/214 85/95/85 87/97/87 216/242/216
f 212/238/212 83/93/83 85/95/85 214/240/214
f 210/236/210 81/91/81 83/93/83 212/238/212
f 208/234/208 79/89/79 81/91/81 210/236/210
f 206/232/206 77/87/77 79/89/79 208/234/208
f 204/230/204 75/83/75 77/87/77 206/232/206
f 202/229/202 73/84/73 75/83/75 204/230/204
f 200/224/200 71/79/71 73/81/73 202/226/202
f 198/222/198 69/77/69 71/79/71 200/224/200
f 196/220/196 65/73/65 69/77/69 198/222/198
f 193/217/193 132/148/132 131/147/131 194/218/194
f 197/221/197 134/150/134 132/148/132 193/217/193
f 199/223/199 136/152/136 134/150/134 197/221/197
f 201/225/201 138/154/138 136/152/136 199/223/199
f 203/227/203 140/158/140 138/157/138 201/228/201
f 205/231/205 142/160/142 140/158/140 203/227/203
f 207/233/207 144/162/144 142/160/142 205/231/205
f 209/235/209 146/164/146 144/162/144 207/233/207
f 211/237/211 148/166/148 146/164/146 209/235/209
f 213/239/213 150/168/150 148/166/148 211/237/211
f 215/241/215 152/170/152 150/168/150 213/239/213
f 217/243/217 154/172/154 152/170/152 215/241/215
f 219/245/219 156/176/156 154/175/154 217/246/217
f 221/249/221 158/178/158 156/176/156 219/245/219
f 223/251/223 160/180/160 158/178/158 221/249/221
f 225/253/225 162/182/162 160/180/160 223/251/223
f 227/255/227 164/184/164 162/182/162 225/253/225
f 229/257/229 165/185/165 164/184/164 227/255/227
f 231/259/231 167/187/167 165/185/165 229/257/229
f 233/261/233 169/189/169 167/187/167 231/259/231
f 235/263/235 171/191/171 169/194/169 233/264/233
f 237/267/237 173/195/173 171/191/171 235/263/235
f 239/269/239 175/197/175 173/195/173 237/267/237
f 241/271/241 177/199/177 175/197/175 239/269/239
f 243/273/243 179/201/179 177/199/177 241/271/241
f 245/275/245 181/203/181 179/201/179 243/273/243
f 247/277/247 183/205/183 181/203/181 245/275/245
f 249/279/249 185/207/185 183/205/183 247/277/247
f 251/281/251 187/209/187 185/212/185 249/282/249
f 253/285/253 189/213/189 187/209/187 251/281/251
f 255/287/255 191/215/191 189/213/189 253/285/253
f 194/218/194 131/147/131 191/215/191 255/287/255
f 129/145/129 257/289/257 258/290/258 130/146/130
f 133/149/133 259/291/259 257/289/257 129/145/129
f 135/151/135 260/292/260 259/291/259 133/149/133
f 137/153/137 261/293/261 260/292/260 135/151/135
f 139/155/139 262/294/262 261/295/261 137/156/137
f 141/159/141 263/296/263 262/294/262 139/155/139
f 143/161/143 264/297/264 263/296/263 141/159/141
f 145/163/145 265/298/265 264/297/264 143/161/143
f 147/165/147 266/299/266 265/298/265 145/163/145
f 149/167/149 267/300/267 266/299/266 147/165/147
f 151/169/151 268/301/268 267/300/267 149/167/149
f 153/171/153 269/302/269 268/301/268 151/169/151
f 155/173/155 270/303/270 269/304/269 153/174/153
f 157/177/157 271/305/271 270/303/270 155/173/155
f 159/179/159 272/306/272 271/305/271 157/177/157
f 161/181/161 273/307/273 272/306/272 159/179/159
f 163/183/163 274/308/274 273/307/273 161/181/161
f 163/183/163 166/186/166 275/309/275 274/308/274
f 166/186/166 168/188/168 276/310/276 275/309/275
f 168/188/168 170/190/170 277/311/277 276/310/276
f 170/193/170 172/192/172 278/312/278 277/313/277
f 172/192/172 174/196/174 279/314/279 278/312/278
f 174/196/174 176/198/176 280/315/280 279/314/279
f 176/198/176 178/200/178 281/316/281 280/315/280
f 178/200/178 180/202/180 282/317/282 281/316/281
f 180/202/180 182/204/182 283/318/283 282/317/282
f 182/204/182 184/206/184 284/319/284 283/318/283
f 184/206/184 186/208/186 285/320/285 284/319/284
f 186/211/186 188/210/188 286/321/286 285/322/285
f 188/210/188 190/214/190 287/323/287 286/321/286
f 190/214/190 192/216/192 288/324/288 287/323/287
f 192/216/192 130/146/130 258/290/258 288/324/288
f 289/325/289 290/326/290 291/327/291 292/328/292
f 293/329/293 294/330/294 290/326/290 289/325/289
f 295/331/295 294/330/294 293/329/293 296/332/296
f 297/333/297 295/331/295 296/332/296 298/334/298
f 299/335/299 297/336/297 298/337/298 300/338/300
f 301/339/301 299/335/299 300/338/300 302/340/302
f 303/341/303 301/339/301 302/340/302 304/342/304
f 305/343/305 303/341/303 304/342/304 306/344/306
f 307/345/307 305/343/305 306/344/306 308/346/308
f 309/347/309 307/345/307 308/346/308 310/348/310
f 311/349/311 309/347/309 310/348/310 312/350/312
f 313/351/313 311/349/311 312/350/312 314/352/314
f 315/353/315 313/354/313 314/355/314 316/356/316
f 317/357/317 315/353/315 316/356/316 318/358/318
f 319/359/319 317/357/317 318/358/318 320/360/320
f 321/361/321 319/359/319 320/360/320 322/362/322
f 323/363/323 321/361/321 322/362/322 324/364/324
f 325/365/325 323/363/323 324/364/324 326/366/326
f 327/367/327 325/365/325 326/366/326 328/368/328
f 329/369/329 327/367/327 328/368/328 330/370/330
f 331/371/331 329/372/329 330/373/330 332/374/332
f 333/375/333 331/371/331 332/374/332 334/376/334
f 335/377/335 336/378/336 333/375/333 334/376/334
f 337/379/337 338/380/338 336/378/336 335/377/335
f 339/381/339 340/382/340 338/380/338 337/379/337
f 341/383/341 342/384/342 340/382/340 339/381/339
f 343/385/343 344/386/344 342/384/342 341/383/341
f 345/387/345 346/388/346 344/386/344 343/385/343
f 347/389/347 348/390/348 346/391/346 345/392/345
f 349/393/349 350/394/350 348/390/348 347/389/347
f 351/395/351 352/396/352 350/394/350 349/393/349
f 292/328/292 291/327/291 352/396/352 351/395/351
f 353/397/353 354/398/354 355/399/355 356/400/356
f 357/401/357 353/397/353 356/400/356 358/402/358
f 359/403/359 357/401/357 358/402/358 360/404/360
f 361/405/361 359/403/359 360/404/360 362/406/362
f 363/407/363 361/408/361 362/409/362 364/410/364
f 365/411/365 363/407/363 364/410/364 366/412/366
f 367/413/367 365/411/365 366/412/366 368/414/368
f 369/415/369 367/413/367 368/414/368 370/416/370
f 371/417/371 369/415/369 370/416/370 372/418/372
f 373/419/373 371/417/371 372/418/372 374/420/374
f 375/421/375 373/419/373 374/420/374 376/422/376
f 377/423/377 375/421/375 376/422/376 378/424/378
f 379/425/379 377/426/377 378/427/378 380/428/380
f 381/429/381 379/425/379 380/428/380 382/430/382
f 383/431/383 381/429/381 382/430/382 384/432/384
f 385/433/385 383/431/383 384/432/384 386/434/386
f 387/435/387 385/433/385 386/434/386 388/436/388
f 389/437/389 387/435/387 388/436/388 390/438/390
f 391/439/391 389/437/389 390/438/390 392/440/392
f 393/441/393 391/439/391 392/440/392 394/442/394
f 395/443/395 393/444/393 394/445/394 396/446/396
f 397/447/397 395/443/395 396/446/396 398/448/398
f 399/449/399 397/447/397 398/448/398 400/450/400
f 401/451/401 399/449/399 400/450/400 402/452/402
f 403/453/403 401/451/401 402/452/402 404/454/404
f 405/455/405 403/453/403 404/454/404 406/456/406
f 407/457/407 405/455/405 406/456/406 408/458/408
f 409/459/409 410/460/410 407/457/407 408/458/408
f 411/461/411 410/462/410 409/463/409 412/464/412
f 413/465/413 411/461/411 412/464/412 414/466/414
f 415/467/415 413/465/413 414/466/414 416/468/416
f 354/398/354 415/467/415 416/468/416 355/399/355
f 290/326/290 417/469/417 418/470/418 291/327/291
f 419/471/419 417/469/417 290/326/290 294/330/294
f 420/472/420 419/471/419 294/330/294 295/331/295
f 421/473/421 420/472/420 295/331/295 297/333/297
f 422/474/422 421/475/421 297/336/297 299/335/299
f 423/476/423 422/474/422 299/335/299 301/339/301
f 424/477/424 423/476/423 301/339/301 303/341/303
f 425/478/425 424/477/424 303/341/303 305/343/305
f 426/479/426 425/478/425 305/343/305 307/345/307
f 427/480/427 426/479/426 307/345/307 309/347/309
f 428/481/428 427/480/427 309/347/309 311/349/311
f 429/482/429 428/481/428 311/349/311 313/351/313
f 430/483/430 429/484/429 313/354/313 315/353/315
f 431/485/431 430/483/430 315/353/315 317/357/317
f 432/486/432 431/485/431 317/357/317 319/359/319
f 433/487/433 432/486/432 319/359/319 321/361/321
f 434/488/434 433/487/433 321/361/321 323/363/323
f 325/365/325 435/489/435 434/488/434 323/363/323
f 327/367/327 436/490/436 435/489/435 325/365/325
f 329/369/329 437/491/437 436/490/436 327/367/327
f 331/371/331 438/492/438 437/493/437 329/372/329
f 333/375/333 439/494/439 438/492/438 331/371/331
f 336/378/336 440/495/440 439/494/439 333/375/333
f 338/380/338 441/496/441 440/495/440 336/378/336
f 340/382/340 442/497/442 441/496/441 338/380/338
f 342/384/342 443/498/443 442/497/442 340/382/340
f 344/386/344 444/499/444 443/498/443 342/384/342
f 346/388/346 445/500/445 444/499/444 344/386/344
f 348/390/348 446/501/446 445/502/445 346/391/346
f 350/394/350 447/503/447 446/501/446 348/390/348
f 352/396/352 448/504/448 447/503/447 350/394/350
f 291/327/291 418/470/418 448/504/448 352/396/352
f 289/505/289 292/506/292 258/290/258 257/289/257
f 293/507/293 289/505/289 257/289/257 259/291/259
f 260/292/260 296/508/296 293/507/293 259/291/259
f 261/293/261 298/509/298 296/508/296 260/292/260
f 262/294/262 300/338/300 298/337/298 261/295/261
f 263/296/263 302/340/302 300/338/300 262/294/262
f 264/297/264 304/342/304 302/340/302 263/296/263
f 265/298/265 306/344/306 304/342/304 264/297/264
f 266/299/266 308/346/308 306/344/306 265/298/265
f 267/300/267 310/348/310 308/346/308 266/299/266
f 268/301/268 312/350/312 310/348/310 267/300/267
f 269/302/269 314/352/314 312/350/312 268/301/268
f 270/510/270 316/356/316 314/355/314 269/511/269
f 271/512/271 318/358/318 316/356/316 270/510/270
f 272/513/272 320/360/320 318/358/318 271/512/271
f 273/514/273 322/362/322 320/360/320 272/513/272
f 324/364/324 322/362/322 273/514/273 274/515/274
f 326/366/326 324/364/324 274/515/274 275/516/275
f 328/368/328 326/366/326 275/516/275 276/517/276
f 330/370/330 328/368/328 276/517/276 277/518/277
f 332/374/332 330/373/330 277/313/277 278/312/278
f 334/376/334 332/374/332 278/312/278 279/314/279
f 335/377/335 334/376/334 279/314/279 280/315/280
f 337/379/337 335/377/335 280/315/280 281/316/281
f 339/381/339 337/379/337 281/316/281 282/317/282
f 341/383/341 339/381/339 282/317/282 283/318/283
f 343/385/343 341/383/341 283/318/283 284/319/284
f 345/387/345 343/385/343 284/319/284 285/320/285
f 347/519/347 345/520/345 285/322/285 286/321/286
f 349/521/349 347/519/347 286/321/286 287/323/287
f 351/522/351 349/521/349 287/323/287 288/324/288
f 292/506/292 351/522/351 288/324/288 258/290/258
f 417/469/417 356/400/356 355/399/355 418/470/418
f 419/471/419 358/402/358 356/400/356 417/469/417
f 420/472/420 360/404/360 358/402/358 419/471/419
f 421/473/421 362/406/362 360/404/360 420/472/420
f 422/474/422 364/410/364 362/409/362 421/475/421
f 423/476/423 366/412/366 364/410/364 422/474/422
f 368/414/368 366/412/366 423/476/423 424/477/424
f 370/416/370 368/414/368 424/477/424 425/478/425
f 372/418/372 370/416/370 425/478/425 426/479/426
f 374/420/374 372/418/372 426/479/426 427/480/427
f 376/422/376 374/420/374 427/480/427 428/481/428
f 378/424/378 376/422/376 428/481/428 429/482/429
f 380/428/380 378/427/378 429/484/429 430/483/430
f 382/430/382 380/428/380 430/483/430 431/485/431
f 384/432/384 382/430/382 431/485/431 432/486/432
f 386/434/386 384/432/384 432/486/432 433/487/433
f 388/436/388 386/434/386 433/487/433 434/488/434
f 390/438/390 388/436/388 434/488/434 435/489/435
f 392/440/392 390/438/390 435/489/435 436/490/436
f 394/442/394 392/440/392 436/490/436 437/491/437
f 396/446/396 394/445/394 437/493/437 438/492/438
f 439/494/439 398/448/398 396/446/396 438/492/438
f 440/495/440 400/450/400 398/448/398 439/494/439
f 441/496/441 402/452/402 400/450/400 440/495/440
f 442/497/442 404/454/404 402/452/402 441/496/441
f 443/498/443 406/456/406 404/454/404 442/497/442
f 444/499/444 408/458/408 406/456/406 443/498/443
f 445/500/445 409/459/409 408/458/408 444/499/444
f 446/501/446 412/464/412 409/463/409 445/502/445
f 447/503/447 414/466/414 412/464/412 446/501/446
f 448/504/448 416/468/416 414/466/414 447/503/447
f 418/470/418 355/399/355 416/468/416 448/504/448
f 4/523/449 449/524/449 450/525/449 1/526/449
f 1/526/449 450/525/449 451/527/449 5/528/449
f 5/528/449 451/527/449 452/529/449 7/530/449
f 7/530/449 452/529/449 453/531/449 9/532/449
f 9/532/449 453/531/449 454/533/449 11/534/449
f 11/534/449 454/533/449 455/535/449 13/536/449
f 13/536/449 455/535/449 456/537/450 15/538/450
f 15/538/450 456/537/450 457/539/451 17/540/451
f 17/540/451 457/539/451 458/541/452 19/542/452
f 19/542/452 458/541/452 459/543/451 21/544/451
f 21/544/451 459/543/451 460/545/451 23/546/451
f 23/546/451 460/545/451 461/547/449 25/548/449
f 25/548/449 461/547/449 462/549/449 27/550/449
f 27/550/449 462/549/449 463/551/451 29/552/451
f 29/552/451 463/551/451 464/553/451 31/554/451
f 31/554/451 464/553/451 465/555/451 33/556/451
f 33/556/451 465/555/451 466/557/452 35/558/452
f 35/558/452 466/557/452 467/559/450 37/560/450
f 37/560/450 467/559/450 468/561/450 39/562/450
f 39/562/450 468/561/450 469/563/452 41/564/452
f 41/564/452 469/563/452 470/565/451 43/566/451
f 43/566/451 470/565/451 471/567/452 45/568/452
f 45/568/452 471/567/452 472/569/450 47/570/450
f 47/570/450 472/569/450 473/571/450 49/572/450
f 49/572/450 473/571/450 474/573/453 51/574/453
f 51/574/453 474/573/453 475/575/452 53/576/452
f 53/576/452 475/575/452 476/577/450 55/578/450
f 55/578/450 476/577/450 477/579/452 57/580/452
f 57/580/452 477/579/452 478/581/449 59/582/449
f 59/582/449 478/581/449 479/583/450 61/584/450
f 61/584/450 479/583/450 480/585/450 63/586/450
f 63/586/450 480/585/450 449/524/449 4/523/449
f 353/587/454 481/588/454 482/589/455 354/590/455
f 357/591/454 483/592/454 481/588/454 353/587/454
f 359/593/455 484/594/455 483/592/454 357/591/454
f 361/595/455 485/596/456 484/594/455 359/593/455
f 363/597/456 486/598/456 485/596/456 361/595/455
f 365/599/455 487/600/455 486/598/456 363/597/456
f 367/601/456 488/602/456 487/600/455 365/599/455
f 367/601/456 369/603/455 489/604/455 488/602/456
f 371/605/455 490/606/455 489/604/455 369/603/455
f 373/607/455 491/608/455 490/606/455 371/605/455
f 373/607/455 375/609/457 492/610/457 491/608/455
f 377/611/456 493/612/456 492/610/457 375/609/457
f 379/613/457 494/614/457 493/612/456 377/611/456
f 379/613/457 381/615/456 495/616/456 494/614/457
f 383/617/455 496/618/455 495/616/456 381/615/456
f 383/617/455 385/619/457 497/620/457 496/618/455
f 387/621/457 498/622/457 497/620/457 385/619/457
f 389/623/457 499/624/457 498/622/457 387/621/457
f 391/625/457 500/626/457 499/624/457 389/623/457
f 393/627/457 501/628/457 500/626/457 391/625/457
f 395/629/454 502/630/454 501/628/457 393/627/457
f 397/631/457 503/632/457 502/630/454 395/629/454
f 399/633/454 504/634/454 503/632/457 397/631/457
f 399/633/454 401/635/454 505/636/454 504/634/454
f 403/637/457 506/638/457 505/636/454 401/635/454
f 403/637/457 405/639/457 507/640/457 506/638/457
f 407/641/455 508/642/455 507/640/457 405/639/457
f 407/641/455 410/643/454 509/644/454 508/642/455
f 411/645/457 510/646/457 509/644/454 410/643/454
f 413/647/455 511/648/455 510/646/457 411/645/457
f 415/649/455 512/650/455 511/648/455 413/647/455
f 354/590/455 482/589/455 512/650/455 415/649/455
f 513/651/458 514/652/459 450/653/459 449/654/458
f 514/652/459 515/655/460 451/656/460 450/653/459
f 515/655/460 516/657/461 452/658/461 451/656/460
f 516/657/461 517/659/462 453/660/462 452/658/461
f 517/661/462 518/662/463 454/663/463 453/664/462
f 518/662/463 519/665/464 455/666/464 454/663/463
f 519/665/464 520/667/465 456/668/465 455/666/464
f 520/667/465 521/669/466 457/670/467 456/668/465
f 521/669/466 522/671/468 458/672/469 457/670/467
f 522/671/468 523/673/470 459/674/470 458/672/469
f 523/673/470 524/675/471 460/676/471 459/674/470
f 524/675/471 525/677/472 461/678/472 460/676/471
f 525/679/472 526/680/473 462/681/473 461/682/472
f 526/680/473 527/683/474 463/684/474 462/681/473
f 527/683/474 528/685/475 464/686/475 463/684/474
f 528/685/475 529/687/454 465/688/454 464/686/475
f 529/687/454 530/689/476 466/690/477 465/688/454
f 530/689/476 531/691/478 467/692/478 466/690/477
f 531/691/478 532/693/479 468/694/479 467/692/478
f 532/693/479 533/695/480 469/696/480 468/694/479
f 533/697/480 534/698/481 470/699/481 469/700/480
f 534/698/481 535/701/482 471/702/482 470/699/481
f 535/701/482 536/703/483 472/704/484 471/702/482
f 536/703/483 537/705/485 473/706/485 472/704/484
f 537/705/485 538/707/486 474/708/486 473/706/485
f 538/707/486 539/709/487 475/710/487 474/708/486
f 539/709/487 540/711/488 476/712/489 475/710/487
f 540/711/488 541/713/490 477/714/490 476/712/489
f 541/715/490 542/716/491 478/717/491 477/718/490
f 542/716/491 543/719/492 479/720/492 478/717/491
f 543/719/492 544/721/493 480/722/493 479/720/492
f 544/721/493 513/651/458 449/654/458 480/722/493
f 545/723/494 546/724/495 482/725/495 481/726/494
f 547/727/496 545/723/494 481/726/494 483/728/496
f 548/729/497 547/727/496 483/728/496 484/730/497
f 549/731/498 548/729/497 484/730/497 485/732/498
f 550/733/499 549/734/498 485/735/498 486/736/499
f 551/737/500 550/733/499 486/736/499 487/738/500
f 552/739/501 551/737/500 487/738/500 488/740/501
f 553/741/502 552/739/501 488/740/501 489/742/502
f 554/743/503 553/741/502 489/742/502 490/744/503
f 555/745/504 554/743/503 490/744/503 491/746/504
f 556/747/505 555/745/504 491/746/504 492/748/505
f 557/749/506 556/747/505 492/748/505 493/750/506
f 558/751/507 557/752/506 493/753/506 494/754/507
f 559/755/508 558/751/507 494/754/507 495/756/508
f 560/757/509 559/755/508 495/756/508 496/758/509
f 561/759/510 560/757/509 496/758/509 497/760/511
f 562/761/512 561/759/510 497/760/511 498/762/512
f 563/763/513 562/761/512 498/762/512 499/764/513
f 564/765/514 563/763/513 499/764/513 500/766/514
f 565/767/515 564/765/514 500/766/514 501/768/515
f 566/769/516 565/770/515 501/771/515 502/772/516
f 567/773/517 566/769/516 502/772/516 503/774/517
f 568/775/518 567/773/517 503/774/517 504/776/518
f 569/777/519 568/775/518 504/776/518 505/778/519
f 570/779/520 569/777/519 505/778/519 506/780/520
f 571/781/521 570/779/520 506/780/520 507/782/521
f 572/783/522 571/781/521 507/782/521 508/784/522
f 573/785/523 572/783/522 508/784/522 509/786/523
f 574/787/524 573/788/523 509/789/523 510/790/524
f 575/791/525 574/787/524 510/790/524 511/792/525
f 576/793/526 575/791/525 511/792/525 512/794/526
f 546/724/495 576/793/526 512/794/526 482/725/495
f 544/795/449 543/796/449 542/797/452 514/798/451
f 542/797/452 541/799/527 540/800/452 538/801/452
f 540/800/452 539/802/528 538/801/452
f 538/801/452 537/803/529 536/804/530 534/805/452
f 536/804/530 535/806/531 534/805/452
f 534/805/452 533/807/532 532/808/453 530/809/449
f 532/808/453 531/810/533 530/809/449
f 538/801/452 534/805/452 530/809/449 514/798/451
f 530/809/449 529/811/450 528/812/451 526/813/450
f 528/812/451 527/814/534 526/813/450
f 526/813/450 525/815/535 524/816/536 522/817/450
f 524/816/536 523/818/537 522/817/450
f 530/809/449 526/813/450 522/817/450 514/798/451
f 522/817/450 521/819/538 520/820/450 518/821/449
f 520/820/450 519/822/449 518/821/449
f 518/821/449 517/823/449 516/824/449 514/798/451
f 516/824/449 515/825/449 514/798/451
f 522/817/450 518/821/449 514/798/451
f 542/797/452 538/801/452 514/798/451
f 513/826/449 544/795/449 514/798/451
f 547/827/457 548/828/455 549/829/457 546/830/457
f 549/829/457 550/831/457 551/832/457 553/833/454
f 551/832/457 552/834/539 553/833/454
f 553/833/454 554/835/540 555/836/540 557/837/454
f 555/836/540 556/838/541 557/837/454
f 557/837/454 558/839/542 559/840/543 561/841/455
f 559/840/543 560/842/544 561/841/455
f 553/833/454 557/837/454 561/841/455 546/830/457
f 561/841/455 562/843/545 563/844/457 565/845/455
f 563/844/457 564/846/457 565/845/455
f 565/845/455 566/847/455 567/848/455 569/849/455
f 567/848/455 568/850/546 569/849/455
f 561/841/455 565/845/455 569/849/455 546/830/457
f 569/849/455 570/851/547 571/852/548 573/853/456
f 571/852/548 572/854/549 573/853/456
f 573/853/456 574/855/550 575/856/543 546/830/457
f 575/856/543 576/857/454 546/830/457
f 569/849/455 573/853/456 546/830/457
f 549/829/457 553/833/454 546/830/457
f 545/858/545 547/827/457 546/830/457
f 577/859/456 578/860/456 579/861/456 580/862/456
f 578/860/456 581/863/456 582/864/456 579/861/456
f 581/863/456 583/865/457 584/866/456 582/864/456
f 583/865/457 585/867/457 586/868/457 584/866/456
f 585/867/457 587/869/457 588/870/456 586/868/457
f 587/869/457 589/871/457 590/872/457 588/870/456
f 589/871/457 591/873/457 592/874/457 590/872/457
f 591/873/457 593/875/457 594/876/457 592/874/457
f 593/875/457 595/877/456 596/878/456 594/876/457
f 595/877/456 597/879/456 598/880/457 596/878/456
f 597/879/456 599/881/456 600/882/457 598/880/457
f 599/881/456 601/883/456 602/884/456 600/882/457
f 601/883/456 603/885/456 604/886/456 602/884/456
f 603/885/456 605/887/456 606/888/456 604/886/456
f 605/887/456 607/889/456 608/890/456 606/888/456
f 607/889/456 609/891/456 610/892/456 608/890/456
f 609/891/456 611/893/456 612/894/456 610/892/456
f 611/893/456 613/895/456 614/896/456 612/894/456
f 613/895/456 615/897/457 616/898/456 614/896/456
f 615/897/457 617/899/457 618/900/457 616/898/456
f 617/899/457 619/901/457 620/902/457 618/900/457
f 619/901/457 621/903/457 622/904/457 620/902/457
f 621/903/457 623/905/457 624/906/457 622/904/457
f 623/905/457 625/907/456 626/908/456 624/906/457
f 625/907/456 577/859/456 580/862/456 626/908/456
f 627/909/450 628/910/450 629/911/450 630/912/449
f 628/910/450 631/913/449 632/914/450 629/911/450
f 631/913/449 633/915/449 634/916/449 632/914/450
f 633/915/449 635/917/449 636/918/449 634/916/449
f 635/917/449 637/919/450 638/920/449 636/918/449
f 637/919/450 639/921/450 640/922/450 638/920/449
f 639/921/450 641/923/450 642/924/450 640/922/450
f 641/923/450 643/925/450 644/926/450 642/924/450
f 643/925/450 645/927/451 646/928/451 644/926/450
f 645/927/451 647/929/450 648/930/450 646/928/451
f 647/929/450 649/931/450 650/932/450 648/930/450
f 649/931/450 651/933/449 652/934/450 650/932/450
f 651/933/449 653/935/451 654/936/451 652/934/450
f 653/935/451 655/937/451 656/938/451 654/936/451
f 655/937/451 657/939/449 658/940/449 656/938/451
f 657/939/449 659/941/449 660/942/449 658/940/449
f 659/941/449 661/943/449 662/944/449 660/942/449
f 661/943/449 663/945/450 664/946/449 662/944/449
f 663/945/450 665/947/450 666/948/451 664/946/449
f 665/947/450 667/949/450 668/950/450 666/948/451
f 667/949/450 669/951/450 670/952/450 668/950/450
f 669/951/450 671/953/450 672/954/450 670/952/450
f 671/953/450 673/955/450 674/956/450 672/954/450
f 673/955/450 675/957/450 676/958/450 674/956/450
f 675/957/450 627/909/450 630/912/449 676/958/450

# 634 faces
